[gd_scene load_steps=7 format=2]

[ext_resource path="res://assets/kenney-particles/smoke_07.png" type="Texture" id=1]

[sub_resource type="Gradient" id=1]
offsets = PoolRealArray( 0, 0.330612, 1 )
colors = PoolColorArray( 0.0778199, 0.0778199, 0.0778199, 1, 0.332031, 0.332031, 0.332031, 1, 0, 0, 0, 1 )

[sub_resource type="GradientTexture" id=2]
gradient = SubResource( 1 )

[sub_resource type="ParticlesMaterial" id=3]
emission_shape = 1
emission_sphere_radius = 0.13
direction = Vector3( 0, 1, 0 )
spread = 0.0
gravity = Vector3( 0, 0, 0 )
initial_velocity = 2.0
angular_velocity = 90.0
angular_velocity_random = 1.0
damping = 0.5
scale = 0.3
color_ramp = SubResource( 2 )

[sub_resource type="SpatialMaterial" id=4]
flags_unshaded = true
vertex_color_use_as_albedo = true
params_blend_mode = 1
params_billboard_mode = 3
particles_anim_h_frames = 1
particles_anim_v_frames = 1
particles_anim_loop = false
albedo_texture = ExtResource( 1 )

[sub_resource type="QuadMesh" id=5]
material = SubResource( 4 )

[node name="Smoke" type="Particles"]
transform = Transform( 1, 0, 0, 0, 1, 0, 0, 0, 1, 0, 0.5, 0 )
amount = 64
lifetime = 3.0
local_coords = false
process_material = SubResource( 3 )
draw_pass_1 = SubResource( 5 )
