[gd_scene load_steps=4 format=2]

[ext_resource path="res://assets/meshes/stones/large-rocks/boulder-3.obj" type="ArrayMesh" id=1]
[ext_resource path="res://assets/shader-materials/toon-outline.tres" type="Material" id=2]

[sub_resource type="SpatialMaterial" id=1]
resource_name = "Stone"
next_pass = ExtResource( 2 )
params_diffuse_mode = 4
params_specular_mode = 3
albedo_color = Color( 0.14902, 0.14902, 0.14902, 1 )
metallic_specular = 0.0
roughness = 0.02

[node name="Boulder" type="MeshInstance"]
mesh = ExtResource( 1 )
material/0 = SubResource( 1 )
