# Blender v2.83.3 OBJ File: ''
# www.blender.org
mtllib ground.mtl
o Circle
v 0.000000 0.000000 0.000000
v 0.000000 0.000000 -64.000000
v -3.140331 0.000000 -63.922909
v -6.273097 0.000000 -63.691822
v -9.390750 0.000000 -63.307297
v -12.485781 0.000000 -62.770256
v -15.550733 0.000000 -62.082001
v -18.578218 0.000000 -61.244183
v -21.560949 0.000000 -60.258820
v -24.491739 0.000000 -59.128292
v -27.363523 0.000000 -57.855316
v -30.169390 0.000000 -56.442963
v -32.902576 0.000000 -54.894630
v -35.556496 0.000000 -53.214054
v -38.124756 0.000000 -51.405281
v -40.601173 0.000000 -49.472668
v -42.979774 0.000000 -47.420868
v -45.254837 0.000000 -45.254829
v -47.420876 0.000000 -42.979767
v -49.472675 0.000000 -40.601166
v -51.405289 0.000000 -38.124748
v -53.214062 0.000000 -35.556488
v -54.894638 0.000000 -32.902565
v -56.442966 0.000000 -30.169380
v -57.855320 0.000000 -27.363514
v -59.128296 0.000000 -24.491726
v -60.258827 0.000000 -21.560934
v -61.244186 0.000000 -18.578201
v -62.082005 0.000000 -15.550713
v -62.770264 0.000000 -12.485761
v -63.307301 0.000000 -9.390729
v -63.691826 0.000000 -6.273074
v -63.922909 0.000000 -3.140307
v -64.000000 0.000000 0.000026
v -63.922909 0.000000 3.140358
v -63.691818 0.000000 6.273125
v -63.307293 0.000000 9.390779
v -62.770252 0.000000 12.485811
v -62.081993 0.000000 15.550762
v -61.244171 0.000000 18.578251
v -60.258808 0.000000 21.560984
v -59.128277 0.000000 24.491774
v -57.855301 0.000000 27.363552
v -56.442951 0.000000 30.169411
v -54.894623 0.000000 32.902592
v -53.214050 0.000000 35.556503
v -51.405281 0.000000 38.124760
v -49.472672 0.000000 40.601170
v -47.420879 0.000000 42.979767
v -45.254845 0.000000 45.254822
v -42.979790 0.000000 47.420856
v -40.601192 0.000000 49.472652
v -38.124783 0.000000 51.405262
v -35.556530 0.000000 53.214031
v -32.902615 0.000000 54.894608
v -30.169437 0.000000 56.442936
v -27.363579 0.000000 57.855289
v -24.491800 0.000000 59.128265
v -21.561018 0.000000 60.258797
v -18.578295 0.000000 61.244160
v -15.550814 0.000000 62.081978
v -12.485870 0.000000 62.770241
v -9.390847 0.000000 63.307281
v -6.273200 0.000000 63.691811
v -3.140441 0.000000 63.922905
v -0.000116 0.000000 64.000000
v 3.140208 0.000000 63.922916
v 6.272968 0.000000 63.691833
v 9.390616 0.000000 63.307316
v 12.485641 0.000000 62.770287
v 15.550588 0.000000 62.082035
v 18.578072 0.000000 61.244225
v 21.560799 0.000000 60.258873
v 24.491585 0.000000 59.128353
v 27.363369 0.000000 57.855389
v 30.169233 0.000000 56.443047
v 32.902416 0.000000 54.894726
v 35.556335 0.000000 53.214161
v 38.124596 0.000000 51.405399
v 40.601013 0.000000 49.472801
v 42.979618 0.000000 47.421013
v 45.254681 0.000000 45.254990
v 47.420723 0.000000 42.979939
v 49.472534 0.000000 40.601337
v 51.405159 0.000000 38.124920
v 53.213943 0.000000 35.556660
v 54.894535 0.000000 32.902737
v 56.442875 0.000000 30.169550
v 57.855240 0.000000 27.363680
v 59.128227 0.000000 24.491890
v 60.258770 0.000000 21.561094
v 61.244141 0.000000 18.578358
v 62.081966 0.000000 15.550863
v 62.770233 0.000000 12.485905
v 63.307278 0.000000 9.390866
v 63.691811 0.000000 6.273205
v 63.922905 0.000000 3.140431
v 64.000000 0.000000 0.000091
v 63.922913 0.000000 -3.140249
v 63.691830 0.000000 -6.273025
v 63.307304 0.000000 -9.390687
v 62.770267 0.000000 -12.485726
v 62.082012 0.000000 -15.550687
v 61.244194 0.000000 -18.578184
v 60.258831 0.000000 -21.560925
v 59.128296 0.000000 -24.491722
v 57.855320 0.000000 -27.363516
v 56.442963 0.000000 -30.169390
v 54.894627 0.000000 -32.902580
v 53.214046 0.000000 -35.556507
v 51.405266 0.000000 -38.124775
v 49.472649 0.000000 -40.601196
v 47.420845 0.000000 -42.979805
v 45.254799 0.000000 -45.254871
v 42.979729 0.000000 -47.420914
v 40.601116 0.000000 -49.472713
v 38.124691 0.000000 -51.405331
v 35.556423 0.000000 -53.214104
v 32.902493 0.000000 -54.894680
v 30.169298 0.000000 -56.443012
v 27.363422 0.000000 -57.855362
v 24.491627 0.000000 -59.128338
v 21.560827 0.000000 -60.258865
v 18.578085 0.000000 -61.244221
v 15.550587 0.000000 -62.082035
v 12.485625 0.000000 -62.770290
v 9.390585 0.000000 -63.307320
v 6.272922 0.000000 -63.691841
v 3.140146 0.000000 -63.922916
vt 0.312426 0.239567
vt 0.312426 0.433335
vt 0.310082 0.433102
vt 0.307743 0.432402
vt 0.305416 0.431238
vt 0.303105 0.429612
vt 0.300817 0.427528
vt 0.298557 0.424992
vt 0.296330 0.422008
vt 0.294142 0.418586
vt 0.291999 0.414731
vt 0.289904 0.410455
vt 0.287863 0.405768
vt 0.285882 0.400679
vt 0.283965 0.395203
vt 0.282116 0.389352
vt 0.280341 0.383140
vt 0.278642 0.376582
vt 0.277025 0.369694
vt 0.275493 0.362492
vt 0.274051 0.354995
vt 0.272700 0.347219
vt 0.271446 0.339184
vt 0.270290 0.330909
vt 0.269235 0.322414
vt 0.268285 0.313719
vt 0.267441 0.304846
vt 0.266706 0.295815
vt 0.266080 0.286649
vt 0.265566 0.277369
vt 0.265165 0.267999
vt 0.264878 0.258560
vt 0.264706 0.249075
vt 0.264648 0.239567
vt 0.264706 0.230059
vt 0.264878 0.220574
vt 0.265165 0.211135
vt 0.265566 0.201765
vt 0.266080 0.192485
vt 0.266706 0.183319
vt 0.267441 0.174288
vt 0.268285 0.165415
vt 0.269235 0.156720
vt 0.270290 0.148225
vt 0.271446 0.139950
vt 0.272700 0.131915
vt 0.274051 0.124139
vt 0.275493 0.116642
vt 0.277025 0.109440
vt 0.278642 0.102552
vt 0.280340 0.095994
vt 0.282116 0.089782
vt 0.283965 0.083931
vt 0.285882 0.078455
vt 0.287863 0.073367
vt 0.289904 0.068679
vt 0.291999 0.064403
vt 0.294142 0.060549
vt 0.296330 0.057126
vt 0.298557 0.054143
vt 0.300817 0.051606
vt 0.303105 0.049522
vt 0.305416 0.047896
vt 0.307743 0.046732
vt 0.310082 0.046032
vt 0.312426 0.045799
vt 0.314771 0.046032
vt 0.317109 0.046732
vt 0.319437 0.047896
vt 0.321747 0.049522
vt 0.324035 0.051606
vt 0.326295 0.054142
vt 0.328522 0.057126
vt 0.330710 0.060548
vt 0.332854 0.064402
vt 0.334949 0.068679
vt 0.336989 0.073366
vt 0.338970 0.078454
vt 0.340888 0.083931
vt 0.342736 0.089782
vt 0.344512 0.095994
vt 0.346210 0.102552
vt 0.347827 0.109440
vt 0.349359 0.116641
vt 0.350802 0.124139
vt 0.352152 0.131915
vt 0.353407 0.139950
vt 0.354563 0.148225
vt 0.355617 0.156720
vt 0.356567 0.165415
vt 0.357411 0.174288
vt 0.358147 0.183319
vt 0.358772 0.192485
vt 0.359286 0.201764
vt 0.359687 0.211135
vt 0.359974 0.220574
vt 0.360147 0.230059
vt 0.360204 0.239567
vt 0.360147 0.249075
vt 0.359974 0.258559
vt 0.359687 0.267999
vt 0.359286 0.277369
vt 0.358772 0.286649
vt 0.358147 0.295815
vt 0.357411 0.304846
vt 0.356567 0.313719
vt 0.355617 0.322414
vt 0.354563 0.330909
vt 0.353407 0.339184
vt 0.352152 0.347219
vt 0.350802 0.354995
vt 0.349359 0.362492
vt 0.347827 0.369694
vt 0.346210 0.376582
vt 0.344512 0.383140
vt 0.342736 0.389352
vt 0.340888 0.395203
vt 0.338970 0.400679
vt 0.336989 0.405768
vt 0.334949 0.410455
vt 0.332854 0.414731
vt 0.330710 0.418586
vt 0.328522 0.422008
vt 0.326295 0.424992
vt 0.324035 0.427528
vt 0.321747 0.429612
vt 0.319437 0.431238
vt 0.317109 0.432402
vt 0.314770 0.433102
vn 0.0000 1.0000 0.0000
usemtl None
s off
f 1/1/1 2/2/1 3/3/1
f 1/1/1 3/3/1 4/4/1
f 1/1/1 4/4/1 5/5/1
f 1/1/1 5/5/1 6/6/1
f 1/1/1 6/6/1 7/7/1
f 1/1/1 7/7/1 8/8/1
f 1/1/1 8/8/1 9/9/1
f 1/1/1 9/9/1 10/10/1
f 1/1/1 10/10/1 11/11/1
f 1/1/1 11/11/1 12/12/1
f 1/1/1 12/12/1 13/13/1
f 1/1/1 13/13/1 14/14/1
f 1/1/1 14/14/1 15/15/1
f 1/1/1 15/15/1 16/16/1
f 1/1/1 16/16/1 17/17/1
f 1/1/1 17/17/1 18/18/1
f 1/1/1 18/18/1 19/19/1
f 1/1/1 19/19/1 20/20/1
f 1/1/1 20/20/1 21/21/1
f 1/1/1 21/21/1 22/22/1
f 1/1/1 22/22/1 23/23/1
f 1/1/1 23/23/1 24/24/1
f 1/1/1 24/24/1 25/25/1
f 1/1/1 25/25/1 26/26/1
f 1/1/1 26/26/1 27/27/1
f 1/1/1 27/27/1 28/28/1
f 1/1/1 28/28/1 29/29/1
f 1/1/1 29/29/1 30/30/1
f 1/1/1 30/30/1 31/31/1
f 1/1/1 31/31/1 32/32/1
f 1/1/1 32/32/1 33/33/1
f 1/1/1 33/33/1 34/34/1
f 1/1/1 34/34/1 35/35/1
f 1/1/1 35/35/1 36/36/1
f 1/1/1 36/36/1 37/37/1
f 1/1/1 37/37/1 38/38/1
f 1/1/1 38/38/1 39/39/1
f 1/1/1 39/39/1 40/40/1
f 1/1/1 40/40/1 41/41/1
f 1/1/1 41/41/1 42/42/1
f 1/1/1 42/42/1 43/43/1
f 1/1/1 43/43/1 44/44/1
f 1/1/1 44/44/1 45/45/1
f 1/1/1 45/45/1 46/46/1
f 1/1/1 46/46/1 47/47/1
f 1/1/1 47/47/1 48/48/1
f 1/1/1 48/48/1 49/49/1
f 1/1/1 49/49/1 50/50/1
f 1/1/1 50/50/1 51/51/1
f 1/1/1 51/51/1 52/52/1
f 1/1/1 52/52/1 53/53/1
f 1/1/1 53/53/1 54/54/1
f 1/1/1 54/54/1 55/55/1
f 1/1/1 55/55/1 56/56/1
f 1/1/1 56/56/1 57/57/1
f 1/1/1 57/57/1 58/58/1
f 1/1/1 58/58/1 59/59/1
f 1/1/1 59/59/1 60/60/1
f 1/1/1 60/60/1 61/61/1
f 1/1/1 61/61/1 62/62/1
f 1/1/1 62/62/1 63/63/1
f 1/1/1 63/63/1 64/64/1
f 1/1/1 64/64/1 65/65/1
f 1/1/1 65/65/1 66/66/1
f 1/1/1 66/66/1 67/67/1
f 1/1/1 67/67/1 68/68/1
f 1/1/1 68/68/1 69/69/1
f 1/1/1 69/69/1 70/70/1
f 1/1/1 70/70/1 71/71/1
f 1/1/1 71/71/1 72/72/1
f 1/1/1 72/72/1 73/73/1
f 1/1/1 73/73/1 74/74/1
f 1/1/1 74/74/1 75/75/1
f 1/1/1 75/75/1 76/76/1
f 1/1/1 76/76/1 77/77/1
f 1/1/1 77/77/1 78/78/1
f 1/1/1 78/78/1 79/79/1
f 1/1/1 79/79/1 80/80/1
f 1/1/1 80/80/1 81/81/1
f 1/1/1 81/81/1 82/82/1
f 1/1/1 82/82/1 83/83/1
f 1/1/1 83/83/1 84/84/1
f 1/1/1 84/84/1 85/85/1
f 1/1/1 85/85/1 86/86/1
f 1/1/1 86/86/1 87/87/1
f 1/1/1 87/87/1 88/88/1
f 1/1/1 88/88/1 89/89/1
f 1/1/1 89/89/1 90/90/1
f 1/1/1 90/90/1 91/91/1
f 1/1/1 91/91/1 92/92/1
f 1/1/1 92/92/1 93/93/1
f 1/1/1 93/93/1 94/94/1
f 1/1/1 94/94/1 95/95/1
f 1/1/1 95/95/1 96/96/1
f 1/1/1 96/96/1 97/97/1
f 1/1/1 97/97/1 98/98/1
f 1/1/1 98/98/1 99/99/1
f 1/1/1 99/99/1 100/100/1
f 1/1/1 100/100/1 101/101/1
f 1/1/1 101/101/1 102/102/1
f 1/1/1 102/102/1 103/103/1
f 1/1/1 103/103/1 104/104/1
f 1/1/1 104/104/1 105/105/1
f 1/1/1 105/105/1 106/106/1
f 1/1/1 106/106/1 107/107/1
f 1/1/1 107/107/1 108/108/1
f 1/1/1 108/108/1 109/109/1
f 1/1/1 109/109/1 110/110/1
f 1/1/1 110/110/1 111/111/1
f 1/1/1 111/111/1 112/112/1
f 1/1/1 112/112/1 113/113/1
f 1/1/1 113/113/1 114/114/1
f 1/1/1 114/114/1 115/115/1
f 1/1/1 115/115/1 116/116/1
f 1/1/1 116/116/1 117/117/1
f 1/1/1 117/117/1 118/118/1
f 1/1/1 118/118/1 119/119/1
f 1/1/1 119/119/1 120/120/1
f 1/1/1 120/120/1 121/121/1
f 1/1/1 121/121/1 122/122/1
f 1/1/1 122/122/1 123/123/1
f 1/1/1 123/123/1 124/124/1
f 1/1/1 124/124/1 125/125/1
f 1/1/1 125/125/1 126/126/1
f 1/1/1 126/126/1 127/127/1
f 1/1/1 127/127/1 128/128/1
f 1/1/1 128/128/1 129/129/1
f 1/1/1 129/129/1 2/2/1
