# Blender v2.83.4 OBJ File: 'log-3.blend'
# www.blender.org
mtllib log-3.mtl
o Log_Cylinder
v 0.113130 -0.032457 -0.172952
v 0.053218 -0.102097 -0.172952
v -0.042747 -0.117765 -0.172952
v -0.115357 -0.062922 -0.172952
v -0.125230 -0.033292 -0.172952
v -0.135104 0.000377 -0.172952
v -0.072084 -0.110807 -0.172952
v -0.097690 -0.089139 -0.172952
v 0.022772 -0.112306 -0.172952
v -0.011262 -0.118256 -0.172952
v 0.101078 -0.060992 -0.172952
v 0.079617 -0.087519 -0.172952
v 0.118983 0.000037 -0.172952
v 0.113748 -0.031803 -0.480153
v 0.054025 -0.103853 -0.480153
v -0.042549 -0.117039 -0.480153
v -0.119402 -0.063636 -0.480153
v 0.110806 -0.031029 -0.486176
v 0.052491 -0.101225 -0.486176
v -0.041776 -0.114096 -0.486176
v -0.116774 -0.062102 -0.486176
v 0.114555 -0.031930 -0.355543
v 0.054414 -0.104508 -0.355543
v -0.041310 -0.118118 -0.355543
v -0.120053 -0.064018 -0.355543
v 0.117594 0.000376 -0.480153
v 0.080257 -0.089380 -0.480153
v 0.101276 -0.061714 -0.480153
v -0.010673 -0.118669 -0.480153
v 0.023752 -0.113969 -0.480153
v -0.099368 -0.089110 -0.480153
v -0.071702 -0.110128 -0.480153
v -0.132911 0.000378 -0.480153
v -0.129182 -0.034180 -0.480153
v 0.114477 0.000381 -0.486176
v 0.078057 -0.087173 -0.486176
v 0.098560 -0.060186 -0.486176
v -0.010668 -0.115552 -0.486176
v 0.022912 -0.110967 -0.486176
v -0.097160 -0.086909 -0.486176
v -0.070173 -0.107412 -0.486176
v -0.129794 0.000373 -0.486176
v -0.126181 -0.033340 -0.486176
v -0.129927 -0.034388 -0.355543
v -0.135154 0.000829 -0.355543
v -0.071233 -0.111065 -0.355543
v -0.099896 -0.089706 -0.355543
v 0.024671 -0.114867 -0.355543
v -0.009242 -0.119791 -0.355543
v 0.101955 -0.062097 -0.355543
v 0.080808 -0.089932 -0.355543
v 0.119564 0.001475 -0.355543
v 0.059515 -0.037837 -0.489649
v 0.067285 -0.019416 -0.489649
v 0.011755 -0.069024 -0.489649
v 0.031779 -0.062520 -0.489649
v -0.049260 -0.067359 -0.489649
v -0.032291 -0.071268 -0.489649
v -0.083383 -0.022002 -0.489649
v -0.077662 -0.039753 -0.489649
v 0.069576 0.000445 -0.489649
v 0.047079 -0.054206 -0.489649
v -0.011256 -0.072166 -0.489649
v -0.065629 -0.054924 -0.489649
v -0.085879 0.001521 -0.489649
v 0.113748 -0.031803 0.487462
v 0.054025 -0.103853 0.487462
v -0.042549 -0.117039 0.487462
v -0.119402 -0.063636 0.487462
v 0.110806 -0.031029 0.493485
v 0.052491 -0.101225 0.493485
v -0.041776 -0.114096 0.493485
v -0.116774 -0.062102 0.493485
v 0.117594 0.000376 0.487462
v 0.080257 -0.089380 0.487462
v 0.101276 -0.061715 0.487462
v -0.010673 -0.118669 0.487462
v 0.023752 -0.113969 0.487462
v -0.099368 -0.089110 0.487462
v -0.071702 -0.110128 0.487462
v -0.132911 0.000378 0.487462
v -0.129182 -0.034180 0.487462
v 0.114477 0.000381 0.493485
v 0.078057 -0.087173 0.493485
v 0.098560 -0.060186 0.493485
v -0.010668 -0.115552 0.493485
v 0.022912 -0.110967 0.493485
v -0.097160 -0.086909 0.493485
v -0.070173 -0.107412 0.493485
v -0.129794 0.000373 0.493485
v -0.126181 -0.033340 0.493485
v 0.059515 -0.037837 0.496958
v 0.067285 -0.019416 0.496958
v 0.011755 -0.069025 0.496958
v 0.031779 -0.062520 0.496958
v -0.049260 -0.067359 0.496958
v -0.032291 -0.071268 0.496958
v -0.083383 -0.022002 0.496958
v -0.077662 -0.039753 0.496958
v 0.069576 0.000445 0.496958
v 0.047079 -0.054206 0.496958
v -0.011256 -0.072166 0.496958
v -0.065629 -0.054924 0.496958
v -0.085879 0.001521 0.496958
v -0.133067 0.000378 0.481987
v -0.133223 0.000378 0.219582
v -0.135018 0.001699 0.085642
v -0.136514 0.001458 -0.048299
v -0.099478 -0.089220 0.481987
v -0.098982 -0.087382 0.219582
v -0.097725 -0.087238 0.085642
v -0.099894 -0.089549 -0.048299
v -0.010673 -0.118825 0.481987
v -0.008911 -0.118757 0.219582
v -0.008911 -0.118913 0.085642
v -0.010674 -0.119292 -0.048299
v 0.080368 -0.089491 0.481987
v 0.080803 -0.091820 0.219582
v 0.080891 -0.091937 0.085642
v 0.080673 -0.089821 -0.048299
v 0.117750 0.000376 0.481987
v 0.117906 0.000376 0.219582
v 0.117335 -0.000781 0.085642
v 0.119389 -0.000619 -0.048299
v -0.129332 -0.034222 0.481987
v -0.129482 -0.034264 0.219582
v -0.134159 -0.033724 0.085642
v -0.137053 -0.034261 -0.048299
v -0.071778 -0.110264 0.481987
v -0.070617 -0.106599 0.219582
v -0.070686 -0.106732 0.085642
v -0.072008 -0.110672 -0.048299
v -0.119533 -0.063713 0.481987
v -0.119660 -0.063774 0.219582
v -0.119905 -0.063336 0.085642
v -0.122775 -0.063908 -0.048299
v 0.023794 -0.114119 0.481987
v 0.024984 -0.116020 0.219582
v 0.025025 -0.116174 0.085642
v 0.023916 -0.114561 -0.048299
v -0.042588 -0.117186 0.481987
v -0.041104 -0.115474 0.219582
v -0.041143 -0.115618 0.085642
v -0.042704 -0.117627 -0.048299
v 0.101412 -0.061791 0.481987
v 0.101515 -0.061926 0.219582
v 0.100236 -0.062577 0.085642
v 0.103360 -0.062189 -0.048299
v 0.054101 -0.103984 0.481987
v 0.054726 -0.107796 0.219582
v 0.054803 -0.107929 0.085642
v 0.054327 -0.104370 -0.048299
v 0.113895 -0.031841 0.481987
v 0.113998 -0.031863 0.219582
v 0.110525 -0.033220 0.085642
v 0.114334 -0.032855 -0.048299
v 0.114116 -0.031899 -0.474523
v 0.054216 -0.104181 -0.474523
v -0.042646 -0.117407 -0.474523
v -0.119730 -0.063828 -0.474523
v -0.129557 -0.034285 -0.474523
v -0.133300 0.000379 -0.474523
v -0.071893 -0.110468 -0.474523
v -0.099644 -0.089385 -0.474523
v 0.023857 -0.114344 -0.474523
v -0.010674 -0.119058 -0.474523
v 0.101616 -0.061906 -0.474523
v 0.080533 -0.089656 -0.474523
v 0.117984 0.000376 -0.474523
v -0.011214 -0.118273 -0.232126
v -0.009242 -0.119791 -0.293776
v -0.042699 -0.117779 -0.232126
v -0.041310 -0.118118 -0.293776
v -0.072084 -0.110808 -0.232126
v -0.071233 -0.111065 -0.293776
v -0.097690 -0.089139 -0.232126
v -0.097649 -0.089205 -0.293776
v -0.115357 -0.062922 -0.232126
v -0.115357 -0.062922 -0.293776
v -0.125230 -0.033292 -0.232126
v -0.125230 -0.033292 -0.293776
v -0.135104 0.000377 -0.232126
v -0.136600 0.000836 -0.293776
v 0.118557 0.000545 -0.232126
v 0.119564 0.001475 -0.293776
v 0.114480 -0.031988 -0.232126
v 0.114555 -0.031930 -0.293776
v 0.101367 -0.060905 -0.232126
v 0.101955 -0.062097 -0.293776
v 0.079617 -0.087519 -0.232126
v 0.080767 -0.089850 -0.293776
v 0.053218 -0.102097 -0.232126
v 0.054373 -0.104426 -0.293776
v 0.022772 -0.112306 -0.232126
v 0.024631 -0.114785 -0.293776
v 0.114300 -0.031948 -0.415033
v 0.054312 -0.104346 -0.415033
v -0.042616 -0.117613 -0.415033
v -0.119895 -0.063924 -0.415033
v -0.129745 -0.034337 -0.415033
v -0.133495 0.000379 -0.415033
v -0.071983 -0.110647 -0.415033
v -0.099782 -0.089522 -0.415033
v 0.023910 -0.114531 -0.415033
v -0.010596 -0.119276 -0.415033
v 0.101785 -0.062001 -0.415033
v 0.080670 -0.089794 -0.415033
v 0.118403 0.000582 -0.415033
v -0.136305 0.000411 -0.115269
v -0.099864 -0.089605 -0.115269
v -0.011263 -0.118177 -0.115269
v 0.079543 -0.087471 -0.115269
v 0.120631 -0.000460 -0.115269
v -0.131396 -0.034327 -0.115269
v -0.072046 -0.110739 -0.115269
v -0.120060 -0.063957 -0.115269
v 0.022751 -0.112231 -0.115269
v -0.042728 -0.117691 -0.115269
v 0.102875 -0.061076 -0.115269
v 0.053179 -0.102031 -0.115269
v 0.114707 -0.032820 -0.115269
v -0.135097 0.001699 0.018672
v -0.098442 -0.089243 0.018672
v -0.010668 -0.119212 0.018672
v 0.080622 -0.089774 0.018672
v 0.120860 -0.000407 0.018672
v -0.134231 -0.033745 0.018672
v -0.071965 -0.110590 0.018672
v -0.119965 -0.063375 0.018672
v 0.023901 -0.114506 0.018672
v -0.042680 -0.117540 0.018672
v 0.103533 -0.062118 0.018672
v 0.054295 -0.104326 0.018672
v 0.118155 -0.032304 0.018672
v -0.135993 0.000410 0.152612
v -0.099038 -0.087438 0.152612
v -0.008911 -0.118835 0.152612
v 0.080858 -0.091874 0.152612
v 0.116685 -0.000086 0.152612
v -0.131187 -0.034264 0.152612
v -0.070655 -0.106666 0.152612
v -0.119883 -0.063810 0.152612
v 0.025005 -0.116097 0.152612
v -0.041124 -0.115546 0.152612
v 0.101529 -0.062017 0.152612
v 0.054764 -0.107863 0.152612
v 0.113268 -0.032201 0.152612
v -0.133145 0.000378 0.350784
v -0.099533 -0.089275 0.350784
v -0.010081 -0.120792 0.350784
v 0.078734 -0.091004 0.350784
v 0.114951 0.001483 0.350784
v -0.129407 -0.034243 0.350784
v -0.071817 -0.110332 0.350784
v -0.119599 -0.063751 0.350784
v 0.025218 -0.118670 0.350784
v -0.042607 -0.117260 0.350784
v 0.096226 -0.059807 0.350784
v 0.055496 -0.108508 0.350784
v 0.108715 -0.029838 0.350784
v -0.133184 0.000378 0.285183
v -0.099561 -0.089302 0.285183
v -0.010068 -0.120824 0.285183
v 0.078763 -0.091031 0.285183
v 0.114991 0.001483 0.285183
v -0.129445 -0.034253 0.285183
v -0.071825 -0.110333 0.285183
v -0.119632 -0.063770 0.285183
v 0.025232 -0.118733 0.285183
v -0.042607 -0.117263 0.285183
v 0.096260 -0.059826 0.285183
v 0.055520 -0.108570 0.285183
v 0.108751 -0.029848 0.285183
v -0.133106 0.000378 0.416385
v -0.099506 -0.089247 0.416385
v -0.010673 -0.118864 0.416385
v 0.080395 -0.089518 0.416385
v 0.117789 0.000376 0.416385
v -0.129370 -0.034232 0.416385
v -0.071797 -0.110298 0.416385
v -0.119566 -0.063732 0.416385
v 0.023804 -0.114156 0.416385
v -0.042598 -0.117223 0.416385
v 0.101402 -0.061793 0.416385
v 0.054120 -0.104017 0.416385
v 0.113888 -0.031834 0.416385
v 0.094809 -0.058076 -0.489649
v 0.106675 -0.029944 -0.489649
v 0.021752 -0.106823 -0.489649
v 0.050338 -0.097537 -0.489649
v -0.068063 -0.103661 -0.489649
v -0.040691 -0.109966 -0.489649
v -0.122037 -0.032180 -0.489649
v -0.113086 -0.059949 -0.489649
v 0.110174 0.000387 -0.489649
v 0.075019 -0.084125 -0.489649
v -0.010662 -0.111249 -0.489649
v -0.094113 -0.083871 -0.489649
v -0.125491 0.000367 -0.489649
v 0.094809 -0.058076 0.496958
v 0.106675 -0.029944 0.496958
v 0.021752 -0.106823 0.496958
v 0.050338 -0.097538 0.496958
v -0.068063 -0.103661 0.496958
v -0.040691 -0.109966 0.496958
v -0.122037 -0.032180 0.496958
v -0.113086 -0.059949 0.496958
v 0.110174 0.000387 0.496958
v 0.075019 -0.084125 0.496958
v -0.010662 -0.111249 0.496958
v -0.094113 -0.083871 0.496958
v -0.125491 0.000367 0.496958
v 0.118405 0.004702 -0.172952
v 0.116988 0.004514 -0.480153
v 0.114082 0.003386 -0.486176
v 0.118424 0.006253 -0.355543
v 0.116988 0.004513 0.487462
v 0.114082 0.003386 0.493485
v 0.117133 0.004570 0.481987
v 0.117279 0.004626 0.219582
v 0.117167 0.003341 0.085642
v 0.119022 0.004238 -0.048299
v 0.117351 0.004654 -0.474523
v 0.117824 0.005020 -0.232126
v 0.118424 0.006253 -0.293776
v 0.117666 0.004999 -0.415033
v 0.120121 0.004837 -0.115269
v 0.120315 0.004969 0.018672
v 0.116309 0.003753 0.152612
v 0.114123 0.004585 0.350784
v 0.114161 0.004599 0.285183
v 0.117170 0.004584 0.416385
v 0.114483 0.008633 -0.172952
v 0.113511 0.007585 -0.480154
v 0.111989 0.004865 -0.486176
v 0.113510 0.009841 -0.355544
v 0.113511 0.007585 0.487462
v 0.111989 0.004865 0.493485
v 0.113587 0.007721 0.481987
v 0.113663 0.007857 0.219582
v 0.114858 0.008153 0.085642
v 0.115254 0.008669 -0.048299
v 0.113701 0.007926 -0.474523
v 0.113833 0.009396 -0.232126
v 0.113510 0.009841 -0.293776
v 0.113725 0.008392 -0.415033
v 0.115720 0.008361 -0.115269
v 0.115786 0.009096 0.018672
v 0.113934 0.007924 0.152612
v 0.112153 0.008500 0.350784
v 0.112173 0.008534 0.285183
v 0.113606 0.007755 0.416386
v 0.110137 0.010692 -0.172952
v 0.109900 0.009283 -0.480154
v 0.110121 0.006174 -0.486176
v 0.108661 0.011168 -0.355544
v 0.109900 0.009283 0.487462
v 0.110121 0.006174 0.493485
v 0.109889 0.009439 0.481987
v 0.109878 0.009594 0.219582
v 0.111073 0.011424 0.085642
v 0.110762 0.011146 -0.048299
v 0.109872 0.009672 -0.474523
v 0.109662 0.011119 -0.232126
v 0.108661 0.011168 -0.293776
v 0.109636 0.010074 -0.415033
v 0.110514 0.010903 -0.115269
v 0.110444 0.011637 0.018672
v 0.110427 0.010725 0.152612
v 0.108987 0.009905 0.350784
v 0.108985 0.009945 0.285183
v 0.109886 0.009477 0.416386
v -0.133336 0.005373 -0.172952
v -0.131920 0.005185 -0.480154
v -0.129014 0.004057 -0.486176
v -0.133356 0.006924 -0.355543
v -0.131920 0.005185 0.487462
v -0.129014 0.004057 0.493485
v -0.132065 0.005241 0.481987
v -0.132210 0.005297 0.219582
v -0.132099 0.004012 0.085642
v -0.133954 0.004909 -0.048299
v -0.132283 0.005326 -0.474523
v -0.132755 0.005691 -0.232126
v -0.133356 0.006924 -0.293776
v -0.132598 0.005670 -0.415033
v -0.135053 0.005508 -0.115269
v -0.135247 0.005641 0.018672
v -0.131240 0.004424 0.152612
v -0.129055 0.005256 0.350784
v -0.129092 0.005270 0.285183
v -0.132101 0.005255 0.416385
v -0.129415 0.009304 -0.172952
v -0.128443 0.008257 -0.480154
v -0.126921 0.005537 -0.486176
v -0.128442 0.010512 -0.355544
v -0.128443 0.008257 0.487462
v -0.126921 0.005537 0.493485
v -0.128519 0.008393 0.481987
v -0.128595 0.008529 0.219582
v -0.129789 0.008825 0.085642
v -0.130186 0.009340 -0.048299
v -0.128633 0.008597 -0.474523
v -0.128764 0.010068 -0.232126
v -0.128442 0.010512 -0.293776
v -0.128656 0.009063 -0.415033
v -0.130652 0.009032 -0.115269
v -0.130717 0.009768 0.018672
v -0.128865 0.008595 0.152612
v -0.127085 0.009171 0.350784
v -0.127105 0.009206 0.285183
v -0.128538 0.008427 0.416386
v -0.125069 0.011364 -0.172952
v -0.124831 0.009954 -0.480154
v -0.125053 0.006845 -0.486176
v -0.123592 0.011839 -0.355544
v -0.124831 0.009954 0.487462
v -0.125053 0.006845 0.493485
v -0.124820 0.010110 0.481987
v -0.124809 0.010265 0.219582
v -0.126005 0.012095 0.085642
v -0.125694 0.011817 -0.048299
v -0.124804 0.010343 -0.474523
v -0.124594 0.011790 -0.232126
v -0.123592 0.011839 -0.293776
v -0.124567 0.010746 -0.415033
v -0.125445 0.011574 -0.115269
v -0.125376 0.012309 0.018672
v -0.125358 0.011397 0.152612
v -0.123919 0.010576 0.350784
v -0.123917 0.010616 0.285183
v -0.124818 0.010149 0.416386
v 0.070273 0.009662 0.481987
v -0.086155 0.009886 0.481987
v 0.070277 0.009507 0.487462
v -0.086159 0.009731 0.487462
v 0.070350 0.006398 0.493485
v -0.086232 0.006622 0.493485
v 0.069783 0.009895 -0.474523
v -0.085997 0.010119 -0.474523
v 0.069866 0.006398 -0.486176
v -0.086080 0.006622 -0.486176
v 0.069793 0.009507 -0.480154
v -0.086006 0.009731 -0.480154
v 0.070240 0.009678 0.417751
v 0.069814 0.009881 -0.414655
v -0.086144 0.009902 0.417751
v -0.086007 0.010105 -0.414655
vt 0.417480 0.206493
vt 0.426708 0.249778
vt 0.470238 0.250000
vt 0.448736 0.198089
vt 0.337574 0.105802
vt 0.376958 0.131029
vt 0.405732 0.094268
vt 0.353821 0.072766
vt 0.205185 0.081549
vt 0.244378 0.076060
vt 0.250000 0.029762
vt 0.198089 0.051264
vt 0.104470 0.159923
vt 0.125682 0.123837
vt 0.094268 0.094268
vt 0.072766 0.146179
vt 0.417239 0.293033
vt 0.448736 0.301911
vt 0.400759 0.162633
vt 0.427234 0.146179
vt 0.290065 0.086104
vt 0.301911 0.051264
vt 0.162253 0.100663
vt 0.146179 0.072766
vt 0.085824 0.208559
vt 0.051264 0.198089
vt 0.426708 0.249778
vt 0.417480 0.206493
vt 0.448736 0.198089
vt 0.470238 0.250000
vt 0.376958 0.131029
vt 0.337574 0.105802
vt 0.353821 0.072766
vt 0.405732 0.094268
vt 0.244378 0.076060
vt 0.205185 0.081549
vt 0.198089 0.051264
vt 0.250000 0.029762
vt 0.125682 0.123837
vt 0.104470 0.159923
vt 0.072766 0.146179
vt 0.094268 0.094268
vt 0.417239 0.293033
vt 0.448736 0.301911
vt 0.400759 0.162633
vt 0.427234 0.146179
vt 0.290065 0.086104
vt 0.301911 0.051264
vt 0.162253 0.100663
vt 0.146179 0.072766
vt 0.085824 0.208559
vt 0.051264 0.198089
vt 0.456688 0.303988
vt 0.000000 0.000000
vt 0.466569 0.306569
vt 0.000000 0.000000
vt 0.791667 0.999248
vt 0.000000 0.000000
vt 0.448736 0.301911
vt 0.000000 0.000000
vt 0.456688 0.303988
vt 0.000000 0.000000
vt 0.466569 0.306569
vt 0.791667 0.999248
vt 0.791667 1.000000
vt 0.000000 0.000000
vt 0.448736 0.301911
vt 0.456688 0.303988
vt 0.000000 0.000000
vt 0.466569 0.306569
vt 0.000000 0.000000
vt 0.791667 0.998120
vt 0.000000 0.000000
vt 0.000000 0.000000
vt 0.456688 0.303988
vt 0.466569 0.306569
vt 0.000000 0.000000
vt 0.000000 0.000000
vt 0.791667 0.998120
vt 0.000000 0.000000
vt 0.791667 0.999060
vt 0.791667 0.999060
vt 0.000000 0.000000
vt 0.791667 0.997181
vt 0.000000 0.000000
vt 0.000000 0.000000
vt 0.791667 0.997181
vt 0.791667 0.996241
vt 0.791667 0.998872
vt 0.791667 0.998684
vt 0.791667 0.998496
vt 0.791667 0.998120
vt 0.791667 0.997744
vt 0.791667 0.997368
vt 0.791667 0.996993
vt 0.791667 0.996617
vt 0.791667 0.996241
vt 0.791667 0.996241
vt 0.791667 0.996241
vt 0.791667 0.996241
vt 0.791667 0.996241
vt 0.791667 0.996241
vt 0.791667 0.996241
vt 0.791667 0.996617
vt 0.791667 0.996993
vt 0.791667 0.997368
vt 0.791667 0.997744
vt 0.791667 0.998120
vt 0.791667 0.998496
vt 0.791667 0.998684
vt 0.791667 0.998872
vt 0.791667 0.998120
vt 0.750000 0.998120
vt 0.750000 1.000000
vt 0.791667 1.000000
vt 0.666667 0.998120
vt 0.625000 0.998120
vt 0.625000 1.000000
vt 0.666667 1.000000
vt 0.541667 0.998120
vt 0.500000 0.998120
vt 0.500000 1.000000
vt 0.541667 1.000000
vt 0.416667 0.998120
vt 0.375000 0.998120
vt 0.375000 1.000000
vt 0.416667 1.000000
vt 0.456688 0.303988
vt 0.466569 0.306569
vt 0.490000 0.250000
vt 0.479050 0.250000
vt 0.434325 0.142025
vt 0.443137 0.136863
vt 0.419706 0.080294
vt 0.411963 0.088037
vt 0.303988 0.043312
vt 0.306569 0.033431
vt 0.250000 0.010000
vt 0.250000 0.020950
vt 0.142025 0.065675
vt 0.136863 0.056863
vt 0.080294 0.080294
vt 0.088037 0.088037
vt 0.065675 0.142025
vt 0.043312 0.196012
vt 0.196012 0.043312
vt 0.357975 0.065675
vt 0.456688 0.196012
vt 0.056863 0.136863
vt 0.033431 0.193431
vt 0.193431 0.033431
vt 0.363137 0.056863
vt 0.466569 0.193431
vt 0.333333 0.998120
vt 0.333333 1.000000
vt 0.291667 0.998120
vt 0.291667 1.000000
vt 0.458333 0.998120
vt 0.458333 1.000000
vt 0.583333 0.998120
vt 0.583333 1.000000
vt 0.708333 0.998120
vt 0.708333 1.000000
vt 0.291667 0.996241
vt 0.291667 0.996241
vt 0.333333 0.996241
vt 0.333333 0.996241
vt 0.375000 0.996241
vt 0.375000 0.996241
vt 0.416667 0.996241
vt 0.416667 0.996241
vt 0.458333 0.996241
vt 0.458333 0.996241
vt 0.500000 0.996241
vt 0.500000 0.996241
vt 0.541667 0.996241
vt 0.541667 0.996241
vt 0.583333 0.996241
vt 0.583333 0.996241
vt 0.625000 0.996241
vt 0.625000 0.996241
vt 0.666667 0.996241
vt 0.666667 0.996241
vt 0.708333 0.996241
vt 0.708333 0.996241
vt 0.750000 0.996241
vt 0.750000 0.996241
vt 0.791667 0.996241
vt 0.791667 0.996241
vt 0.791667 0.999248
vt 0.791667 1.000000
vt 0.750000 1.000000
vt 0.750000 0.999248
vt 0.666667 0.999248
vt 0.666667 1.000000
vt 0.625000 1.000000
vt 0.625000 0.999248
vt 0.541667 0.999248
vt 0.541667 1.000000
vt 0.500000 1.000000
vt 0.500000 0.999248
vt 0.416667 0.999248
vt 0.416667 1.000000
vt 0.375000 1.000000
vt 0.375000 0.999248
vt 0.456688 0.303988
vt 0.479050 0.250000
vt 0.490000 0.250000
vt 0.466569 0.306569
vt 0.434325 0.142025
vt 0.411963 0.088037
vt 0.419706 0.080294
vt 0.443137 0.136863
vt 0.303988 0.043312
vt 0.250000 0.020950
vt 0.250000 0.010000
vt 0.306569 0.033431
vt 0.142025 0.065675
vt 0.088037 0.088037
vt 0.080294 0.080294
vt 0.136863 0.056863
vt 0.065675 0.142025
vt 0.043312 0.196012
vt 0.196012 0.043312
vt 0.357975 0.065675
vt 0.456688 0.196012
vt 0.056863 0.136863
vt 0.033431 0.193431
vt 0.193431 0.033431
vt 0.363137 0.056863
vt 0.466569 0.193431
vt 0.333333 1.000000
vt 0.333333 0.999248
vt 0.291667 1.000000
vt 0.291667 0.999248
vt 0.458333 1.000000
vt 0.458333 0.999248
vt 0.583333 1.000000
vt 0.583333 0.999248
vt 0.708333 1.000000
vt 0.708333 0.999248
vt 0.708333 0.996617
vt 0.708333 0.996993
vt 0.666667 0.996993
vt 0.666667 0.996617
vt 0.708333 0.997368
vt 0.708333 0.997744
vt 0.666667 0.997744
vt 0.666667 0.997368
vt 0.708333 0.998120
vt 0.708333 0.998496
vt 0.666667 0.998496
vt 0.666667 0.998120
vt 0.708333 0.999060
vt 0.666667 0.999060
vt 0.750000 0.996617
vt 0.750000 0.996993
vt 0.750000 0.997368
vt 0.750000 0.997744
vt 0.750000 0.998120
vt 0.750000 0.998496
vt 0.750000 0.999060
vt 0.583333 0.996617
vt 0.583333 0.996993
vt 0.541667 0.996993
vt 0.541667 0.996617
vt 0.583333 0.997368
vt 0.583333 0.997744
vt 0.541667 0.997744
vt 0.541667 0.997368
vt 0.583333 0.998120
vt 0.583333 0.998496
vt 0.541667 0.998496
vt 0.541667 0.998120
vt 0.583333 0.999060
vt 0.541667 0.999060
vt 0.625000 0.996617
vt 0.625000 0.996993
vt 0.625000 0.997368
vt 0.625000 0.997744
vt 0.625000 0.998120
vt 0.625000 0.998496
vt 0.625000 0.999060
vt 0.458333 0.996617
vt 0.458333 0.996993
vt 0.416667 0.996993
vt 0.416667 0.996617
vt 0.458333 0.997368
vt 0.458333 0.997744
vt 0.416667 0.997744
vt 0.416667 0.997368
vt 0.458333 0.998120
vt 0.458333 0.998496
vt 0.416667 0.998496
vt 0.416667 0.998120
vt 0.458333 0.999060
vt 0.416667 0.999060
vt 0.500000 0.996617
vt 0.500000 0.996993
vt 0.500000 0.997368
vt 0.500000 0.997744
vt 0.500000 0.998120
vt 0.500000 0.998496
vt 0.500000 0.999060
vt 0.333333 0.996617
vt 0.333333 0.996993
vt 0.291667 0.996993
vt 0.291667 0.996617
vt 0.333333 0.997368
vt 0.333333 0.997744
vt 0.291667 0.997744
vt 0.291667 0.997368
vt 0.333333 0.998120
vt 0.333333 0.998496
vt 0.291667 0.998496
vt 0.291667 0.998120
vt 0.333333 0.999060
vt 0.291667 0.999060
vt 0.375000 0.996617
vt 0.375000 0.996993
vt 0.375000 0.997368
vt 0.375000 0.997744
vt 0.375000 0.998120
vt 0.375000 0.998496
vt 0.375000 0.999060
vt 0.791667 0.996617
vt 0.791667 0.996993
vt 0.791667 0.997368
vt 0.791667 0.997744
vt 0.791667 0.998120
vt 0.791667 0.998496
vt 0.791667 0.999060
vt 0.708333 0.997181
vt 0.666667 0.997181
vt 0.750000 0.997181
vt 0.583333 0.997181
vt 0.541667 0.997181
vt 0.625000 0.997181
vt 0.458333 0.997181
vt 0.416667 0.997181
vt 0.500000 0.997180
vt 0.333333 0.997181
vt 0.291667 0.997181
vt 0.375000 0.997181
vt 0.791667 0.997181
vt 0.750000 0.996241
vt 0.750000 0.996241
vt 0.791667 0.996241
vt 0.791667 0.996241
vt 0.708333 0.996241
vt 0.708333 0.996241
vt 0.666667 0.996241
vt 0.666667 0.996241
vt 0.625000 0.996241
vt 0.625000 0.996241
vt 0.583333 0.996241
vt 0.583333 0.996241
vt 0.541667 0.996241
vt 0.541667 0.996241
vt 0.500000 0.996241
vt 0.500000 0.996241
vt 0.458333 0.996241
vt 0.458333 0.996241
vt 0.416667 0.996241
vt 0.416667 0.996241
vt 0.375000 0.996241
vt 0.375000 0.996241
vt 0.333333 0.996241
vt 0.333333 0.996241
vt 0.291667 0.996241
vt 0.291667 0.996241
vt 0.791667 0.998684
vt 0.791667 0.998872
vt 0.750000 0.998872
vt 0.750000 0.998684
vt 0.666667 0.998684
vt 0.666667 0.998872
vt 0.625000 0.998872
vt 0.625000 0.998684
vt 0.541667 0.998684
vt 0.541667 0.998872
vt 0.500000 0.998872
vt 0.500000 0.998684
vt 0.416667 0.998684
vt 0.416667 0.998872
vt 0.375000 0.998872
vt 0.375000 0.998684
vt 0.333333 0.998872
vt 0.333333 0.998684
vt 0.291667 0.998872
vt 0.291667 0.998684
vt 0.458333 0.998872
vt 0.458333 0.998684
vt 0.583333 0.998872
vt 0.583333 0.998684
vt 0.708333 0.998872
vt 0.708333 0.998684
vt 0.466569 0.306569
vt 0.456688 0.303988
vt 0.791667 0.998684
vt 0.791667 0.998872
vt 0.791667 1.000000
vt 0.791667 0.998120
vt 0.791667 0.999248
vt 0.791667 1.000000
vt 0.791667 0.997181
vt 0.456688 0.303988
vt 0.791667 0.998496
vt 0.791667 0.998120
vt 0.791667 0.997744
vt 0.791667 0.999060
vt 0.466569 0.306569
vt 0.791667 0.996617
vt 0.791667 0.996993
vt 0.791667 0.997368
vt 0.791667 0.996241
vt 0.791667 0.996241
vt 0.791667 0.996241
vt 0.791667 0.996241
vt 0.791667 0.999248
vt 0.791667 1.000000
vt 0.791667 0.996617
vt 0.791667 0.996993
vt 0.791667 0.998496
vt 0.791667 0.998684
vt 0.456688 0.303988
vt 0.466569 0.306569
vt 0.791667 0.997368
vt 0.791667 0.997744
vt 0.791667 0.998120
vt 0.791667 0.997181
vt 0.791667 0.996241
vt 0.791667 0.996241
vt 0.791667 0.998872
vt 0.791667 0.999060
vt 0.791667 1.000000
vt 0.791667 0.998120
vt 0.791667 0.996241
vt 0.791667 0.996241
vt 0.466569 0.306569
vt 0.456688 0.303988
vt 0.791667 1.000000
vt 0.791667 1.000000
vt 0.456688 0.303988
vt 0.456688 0.303988
vt 0.466569 0.306569
vt 0.466569 0.306569
vt 0.791667 0.998872
vt 0.791667 0.998872
vt 0.791667 0.998684
vt 0.791667 0.998684
vt 0.791667 0.998120
vt 0.791667 0.998120
vt 0.791667 1.000000
vt 0.791667 1.000000
vt 0.791667 1.000000
vt 0.791667 1.000000
vt 0.791667 0.999248
vt 0.791667 0.999248
vt 0.791667 0.997181
vt 0.791667 0.997181
vt 0.456688 0.303988
vt 0.456688 0.303988
vt 0.791667 0.998496
vt 0.791667 0.998496
vt 0.791667 0.998120
vt 0.791667 0.998120
vt 0.791667 0.997744
vt 0.791667 0.997744
vt 0.791667 0.999060
vt 0.791667 0.999060
vt 0.466569 0.306569
vt 0.466569 0.306569
vt 0.791667 0.996993
vt 0.791667 0.996993
vt 0.791667 0.996617
vt 0.791667 0.996617
vt 0.791667 0.997368
vt 0.791667 0.997368
vt 0.791667 0.996241
vt 0.791667 0.996241
vt 0.791667 0.996241
vt 0.791667 0.996241
vt 0.791667 0.996241
vt 0.791667 0.996241
vt 0.791667 0.996241
vt 0.791667 0.996241
vt 0.791667 1.000000
vt 0.791667 0.999248
vt 0.791667 0.996993
vt 0.791667 0.996617
vt 0.791667 0.998684
vt 0.791667 0.998496
vt 0.466569 0.306569
vt 0.456688 0.303988
vt 0.791667 0.997744
vt 0.791667 0.997368
vt 0.791667 0.998120
vt 0.791667 0.996241
vt 0.791667 0.997181
vt 0.791667 0.996241
vt 0.791667 0.999060
vt 0.791667 0.998872
vt 0.791667 0.998120
vt 0.791667 1.000000
vt 0.791667 0.996241
vt 0.791667 0.996241
vt 0.456688 0.303988
vt 0.466569 0.306569
vt 0.791667 1.000000
vn 0.0000 -0.0000 -1.0000
vn 0.3479 -0.0914 -0.9330
vn 0.3089 -0.1788 -0.9341
vn 0.1388 -0.3254 -0.9353
vn 0.0781 -0.3428 -0.9361
vn -0.0465 -0.3507 -0.9353
vn -0.1548 -0.3365 -0.9289
vn -0.3227 -0.1716 -0.9308
vn -0.3464 -0.0728 -0.9353
vn 0.0010 0.2701 -0.9628
vn 0.2988 0.1992 -0.9333
vn 0.2393 -0.2826 -0.9289
vn 0.0166 -0.3512 -0.9361
vn -0.2497 -0.2550 -0.9341
vn -0.0010 0.2748 -0.9615
vn -0.3055 0.1939 -0.9322
vn 0.0000 -0.0000 1.0000
vn 0.3089 -0.1788 0.9341
vn 0.3479 -0.0914 0.9330
vn 0.0781 -0.3428 0.9361
vn 0.1388 -0.3254 0.9353
vn -0.1548 -0.3365 0.9289
vn -0.0465 -0.3507 0.9353
vn -0.3464 -0.0728 0.9353
vn -0.3227 -0.1716 0.9308
vn 0.0010 0.2704 0.9628
vn 0.2987 0.1992 0.9333
vn 0.2393 -0.2826 0.9289
vn 0.0166 -0.3512 0.9361
vn -0.2497 -0.2550 0.9341
vn -0.0010 0.2749 0.9615
vn -0.3055 0.1939 0.9323
vn 0.2067 0.7297 0.6518
vn 0.0027 0.7316 0.6817
vn 0.2188 0.9455 0.2411
vn 0.0034 0.9683 0.2497
vn 0.2182 0.9758 0.0143
vn 0.0035 0.9999 0.0144
vn 0.0006 0.7325 0.6808
vn -0.1995 0.7293 0.6545
vn 0.0035 0.9683 0.2499
vn -0.2133 0.9467 0.2413
vn -0.2126 0.9770 0.0143
vn 0.0037 0.9999 0.0144
vn -0.1995 0.7293 -0.6545
vn 0.0006 0.7326 -0.6807
vn -0.2121 0.9418 -0.2609
vn 0.0035 0.9630 -0.2695
vn -0.2037 0.9784 -0.0364
vn 0.0050 0.9994 -0.0352
vn 0.0027 0.7319 -0.6814
vn 0.2067 0.7297 -0.6518
vn 0.2175 0.9406 -0.2607
vn 0.0034 0.9631 -0.2693
vn 0.0022 0.9994 -0.0352
vn 0.2093 0.9772 -0.0364
vn 0.0109 0.9999 0.0004
vn -0.2042 0.9789 0.0006
vn 0.2100 0.9777 0.0006
vn -0.0036 1.0000 0.0004
vn -0.1715 0.9852 -0.0066
vn 0.0124 0.9999 -0.0006
vn -0.0050 1.0000 -0.0006
vn 0.1774 0.9841 -0.0066
vn 0.1359 0.9907 -0.0040
vn 0.1979 0.9802 0.0006
vn 0.1974 0.9803 0.0005
vn 0.2325 0.9726 0.0032
vn 0.2963 0.9551 0.0065
vn 0.3002 0.9539 0.0059
vn 0.2454 0.9694 0.0007
vn 0.2246 0.9745 -0.0023
vn 0.2184 0.9759 -0.0019
vn 0.2042 0.9789 0.0002
vn 0.1737 0.9848 0.0017
vn 0.1362 0.9907 0.0004
vn -0.1298 0.9915 -0.0040
vn -0.1301 0.9915 0.0004
vn -0.1677 0.9858 0.0017
vn -0.1983 0.9801 0.0002
vn -0.2125 0.9772 -0.0019
vn -0.2186 0.9758 -0.0023
vn -0.2395 0.9709 0.0007
vn -0.2944 0.9557 0.0059
vn -0.2905 0.9569 0.0065
vn -0.2266 0.9740 0.0032
vn -0.1914 0.9815 0.0005
vn -0.1919 0.9814 0.0006
vn 0.9992 0.0150 -0.0370
vn 0.9663 -0.2548 -0.0361
vn 0.9331 -0.2452 -0.2631
vn 0.9647 0.0116 -0.2632
vn 0.6537 -0.7559 -0.0361
vn 0.4019 -0.9150 -0.0353
vn 0.3882 -0.8836 -0.2617
vn 0.6317 -0.7290 -0.2636
vn 0.0420 -0.9985 -0.0358
vn -0.1419 -0.9892 -0.0354
vn -0.1371 -0.9554 -0.2617
vn 0.0407 -0.9636 -0.2641
vn -0.7008 -0.7124 -0.0358
vn -0.8800 -0.4736 -0.0358
vn -0.8495 -0.4575 -0.2630
vn -0.6762 -0.6877 -0.2642
vn 0.7827 0.0074 -0.6223
vn 0.7577 -0.1991 -0.6215
vn 0.5121 -0.5939 -0.6206
vn 0.3135 -0.7194 -0.6199
vn 0.0344 -0.7814 -0.6231
vn -0.1092 -0.7771 -0.6199
vn -0.5481 -0.5583 -0.6228
vn -0.6908 -0.3709 -0.6207
vn -0.7650 -0.1647 -0.6226
vn -0.7823 0.0391 -0.6217
vn -0.3341 -0.7094 -0.6206
vn 0.1764 -0.7620 -0.6231
vn 0.6777 -0.3909 -0.6228
vn -0.9425 -0.2051 -0.2639
vn -0.9633 0.0460 -0.2646
vn -0.4131 -0.8717 -0.2636
vn 0.2191 -0.9393 -0.2641
vn 0.8358 -0.4812 -0.2642
vn -0.9765 -0.2127 -0.0357
vn -0.9984 0.0430 -0.0364
vn -0.4271 -0.9035 -0.0361
vn 0.2274 -0.9732 -0.0357
vn 0.8662 -0.4985 -0.0358
vn -0.9969 0.0778 0.0129
vn -0.9978 0.0658 -0.0054
vn -0.9683 -0.2487 0.0218
vn -0.9562 -0.2912 0.0290
vn -0.8848 -0.4649 0.0314
vn -0.8923 -0.4503 0.0330
vn -0.7102 -0.7038 0.0161
vn -0.7306 -0.6826 0.0163
vn -0.4283 -0.9037 0.0026
vn -0.4398 -0.8981 0.0032
vn -0.1408 -0.9900 -0.0028
vn -0.1363 -0.9907 0.0037
vn 0.0461 -0.9989 -0.0041
vn 0.0558 -0.9984 0.0131
vn 0.2356 -0.9718 -0.0034
vn 0.2406 -0.9704 0.0211
vn 0.4063 -0.9138 -0.0016
vn 0.4062 -0.9135 0.0225
vn 0.6537 -0.7567 -0.0011
vn 0.6496 -0.7600 0.0186
vn 0.8664 -0.4993 -0.0015
vn 0.8618 -0.5071 0.0096
vn 0.9640 -0.2659 -0.0036
vn 0.9630 -0.2695 0.0041
vn 0.9992 0.0381 -0.0077
vn 0.9993 0.0378 0.0061
vn 0.9998 0.0132 0.0143
vn 0.9698 0.0116 0.2437
vn 0.9380 -0.2465 0.2436
vn 0.9670 -0.2543 0.0141
vn 0.6540 -0.7564 0.0144
vn 0.6352 -0.7328 0.2438
vn 0.3903 -0.8882 0.2424
vn 0.4018 -0.9156 0.0142
vn 0.0422 -0.9990 0.0143
vn 0.0409 -0.9687 0.2447
vn -0.1379 -0.9603 0.2424
vn -0.1416 -0.9898 0.0142
vn -0.7011 -0.7129 0.0144
vn -0.6798 -0.6914 0.2447
vn -0.8539 -0.4599 0.2434
vn -0.8805 -0.4737 0.0144
vn 0.7827 0.0074 0.6223
vn 0.7577 -0.1991 0.6215
vn 0.5121 -0.5939 0.6206
vn 0.3135 -0.7194 0.6199
vn 0.0344 -0.7814 0.6231
vn -0.1092 -0.7771 0.6199
vn -0.5481 -0.5583 0.6228
vn -0.6908 -0.3709 0.6207
vn -0.7650 -0.1647 0.6226
vn -0.7823 0.0391 0.6217
vn -0.3341 -0.7094 0.6206
vn 0.1764 -0.7620 0.6231
vn 0.6777 -0.3909 0.6228
vn -0.9475 -0.2063 0.2444
vn -0.9684 0.0462 0.2449
vn -0.4155 -0.8763 0.2438
vn 0.2203 -0.9443 0.2447
vn 0.8403 -0.4838 0.2447
vn -0.9770 -0.2125 0.0144
vn -0.9988 0.0478 0.0145
vn -0.4271 -0.9041 0.0145
vn 0.2272 -0.9737 0.0143
vn 0.8667 -0.4987 0.0141
vn 0.8553 -0.5179 -0.0177
vn 0.8546 -0.5191 -0.0141
vn 0.6352 -0.7721 -0.0163
vn 0.6335 -0.7735 -0.0191
vn 0.8615 -0.5075 0.0134
vn 0.8782 -0.4781 0.0119
vn 0.6783 -0.7347 -0.0098
vn 0.6539 -0.7565 -0.0083
vn 0.8848 -0.4659 -0.0081
vn 0.8839 -0.4664 0.0355
vn 0.7044 -0.7096 0.0170
vn 0.6891 -0.7246 -0.0005
vn 0.8751 -0.4828 -0.0326
vn 0.6818 -0.7316 -0.0024
vn 0.9608 -0.2770 -0.0124
vn 0.9638 -0.2664 -0.0142
vn 0.9647 -0.2626 0.0220
vn 0.9641 -0.2640 0.0287
vn 0.9682 -0.2497 -0.0138
vn 0.9652 -0.2593 0.0335
vn 0.9638 -0.2639 -0.0372
vn 0.2409 -0.9704 -0.0159
vn 0.2322 -0.9725 -0.0161
vn 0.0512 -0.9987 -0.0083
vn 0.0692 -0.9976 -0.0081
vn 0.2140 -0.9767 -0.0130
vn 0.1882 -0.9820 -0.0129
vn 0.0032 -1.0000 0.0019
vn 0.0279 -0.9996 0.0022
vn 0.1744 -0.9847 0.0012
vn 0.1785 -0.9838 -0.0154
vn -0.0137 -0.9998 -0.0163
vn -0.0106 -0.9999 0.0012
vn 0.2177 -0.9755 0.0310
vn 0.0252 -0.9995 0.0166
vn 0.4022 -0.9154 -0.0188
vn 0.4022 -0.9153 -0.0190
vn 0.4019 -0.9154 -0.0200
vn 0.3991 -0.9167 -0.0199
vn 0.3985 -0.9172 0.0011
vn 0.4151 -0.9097 -0.0051
vn 0.4180 -0.9080 0.0277
vn -0.4327 -0.9015 -0.0028
vn -0.4300 -0.9028 0.0032
vn -0.6899 -0.7239 0.0058
vn -0.7066 -0.7073 -0.0214
vn -0.4368 -0.8992 0.0258
vn -0.4391 -0.8982 0.0218
vn -0.6718 -0.7406 0.0104
vn -0.6854 -0.7278 0.0240
vn -0.4326 -0.9016 -0.0007
vn -0.4291 -0.9030 -0.0220
vn -0.6720 -0.7404 -0.0131
vn -0.6616 -0.7498 -0.0034
vn -0.4271 -0.9042 0.0006
vn -0.7012 -0.7129 0.0006
vn -0.1284 -0.9917 -0.0010
vn -0.1375 -0.9905 -0.0010
vn -0.1561 -0.9876 0.0172
vn -0.1819 -0.9832 0.0170
vn -0.1957 -0.9807 0.0011
vn -0.1889 -0.9818 -0.0188
vn -0.1487 -0.9889 0.0041
vn -0.9650 -0.2541 -0.0651
vn -0.9737 -0.2276 -0.0068
vn -0.9860 0.1668 -0.0019
vn -0.9936 0.1078 -0.0330
vn -0.9731 -0.2296 0.0193
vn -0.9714 -0.2371 0.0085
vn -0.9562 0.2924 0.0125
vn -0.9845 0.1749 0.0149
vn -0.9713 -0.2371 0.0197
vn -0.9750 -0.2221 0.0120
vn -0.9788 0.2042 0.0166
vn -0.9535 0.3011 0.0163
vn -0.9771 -0.2126 0.0006
vn -0.9932 0.1160 -0.0048
vn -0.8663 -0.4964 -0.0561
vn -0.8446 -0.5354 -0.0008
vn -0.8346 -0.5504 0.0214
vn -0.8376 -0.5463 0.0057
vn -0.8513 -0.5247 0.0057
vn -0.8680 -0.4965 0.0009
vn -0.8806 -0.4738 0.0006
vn 0.9992 -0.0385 -0.0070
vn 0.9996 -0.0287 -0.0076
vn 0.9995 -0.0255 0.0180
vn 0.9986 -0.0408 0.0325
vn 0.9998 -0.0196 -0.0085
vn 0.9997 0.0111 0.0196
vn 0.9995 0.0149 -0.0267
vn 0.8667 -0.4989 -0.0033
vn 0.6539 -0.7565 -0.0033
vn 0.9657 -0.2594 -0.0056
vn 0.2298 -0.9732 -0.0057
vn 0.0425 -0.9991 -0.0060
vn 0.4035 -0.9150 -0.0040
vn -0.4268 -0.9044 -0.0028
vn -0.7006 -0.7136 -0.0027
vn -0.1424 -0.9898 -0.0044
vn -0.9760 -0.2178 -0.0061
vn -0.9989 0.0451 -0.0116
vn -0.8806 -0.4738 -0.0032
vn 0.9997 0.0238 -0.0106
vn 0.9593 -0.2823 -0.0101
vn 0.9617 -0.2739 0.0084
vn 0.9999 0.0130 0.0058
vn 0.9997 -0.0200 -0.0148
vn 0.8526 -0.5226 -0.0070
vn 0.8561 -0.5166 0.0125
vn 0.6376 -0.7703 -0.0022
vn 0.6445 -0.7644 0.0184
vn 0.4023 -0.9155 0.0007
vn 0.4035 -0.9147 0.0218
vn 0.2458 -0.9693 0.0007
vn 0.2436 -0.9697 0.0205
vn 0.0787 -0.9969 0.0008
vn 0.0700 -0.9975 0.0128
vn -0.1239 -0.9923 0.0007
vn -0.1290 -0.9916 0.0037
vn -0.4447 -0.8957 -0.0033
vn -0.4503 -0.8929 -0.0005
vn -0.7331 -0.6799 -0.0176
vn -0.7438 -0.6684 -0.0007
vn -0.8894 -0.4555 -0.0379
vn -0.8972 -0.4415 0.0000
vn -0.9572 -0.2868 -0.0398
vn -0.9529 -0.3032 0.0026
vn -0.9988 0.0431 -0.0242
vn -0.9981 0.0609 0.0075
vn 0.9993 0.0263 0.0280
vn 0.9993 0.0263 -0.0268
vn 0.9588 -0.2818 -0.0371
vn 0.9588 -0.2816 0.0383
vn 0.7363 -0.6764 0.0167
vn 0.7282 -0.6854 -0.0014
vn 0.4494 -0.8929 0.0279
vn 0.4495 -0.8933 -0.0052
vn -0.0216 -0.9996 -0.0166
vn -0.0077 -0.9998 0.0166
vn -0.1629 -0.9866 0.0039
vn -0.1769 -0.9840 -0.0193
vn -0.6911 -0.7226 -0.0138
vn -0.7011 -0.7130 0.0005
vn -0.8775 -0.4796 -0.0028
vn -0.9771 -0.2127 0.0006
vn -0.9714 0.2375 -0.0050
vn -0.9715 0.2371 0.0062
vn -0.4270 -0.9043 0.0004
vn -0.4271 -0.9039 -0.0225
vn 0.1998 -0.9793 0.0311
vn 0.1863 -0.9824 -0.0156
vn 0.8910 -0.4528 -0.0323
vn 0.8933 -0.4481 0.0365
vn 0.8521 0.4631 0.2437
vn 0.6651 0.3993 0.6310
vn 0.9219 0.3871 0.0176
vn 0.9219 0.3870 -0.0164
vn 0.8474 0.4607 -0.2639
vn 0.8779 0.4772 -0.0386
vn 0.8799 0.4750 0.0148
vn 0.8644 0.5027 -0.0144
vn 0.6651 0.3993 -0.6310
vn 0.9152 0.4027 0.0111
vn 0.9436 0.3312 -0.0009
vn 0.9497 0.3118 0.0281
vn 0.8959 0.4440 -0.0169
vn 0.8973 0.4413 -0.0046
vn 0.9067 0.4218 -0.0025
vn 0.9222 0.3864 0.0129
vn 0.8414 0.5403 -0.0107
vn 0.8500 0.5267 0.0074
vn 0.8844 0.4667 0.0051
vn 0.8944 0.4470 -0.0142
vn 0.5485 0.8360 0.0137
vn 0.5380 0.8106 0.2311
vn 0.5717 0.8205 -0.0038
vn 0.5892 0.8080 -0.0040
vn 0.6415 0.7671 0.0072
vn 0.6522 0.7580 0.0067
vn 0.4367 0.6344 -0.6378
vn 0.5353 0.8069 -0.2498
vn 0.6362 0.7715 0.0055
vn 0.7293 0.6839 0.0174
vn 0.7225 0.6913 0.0069
vn 0.5064 0.8622 -0.0129
vn 0.4544 0.8907 -0.0096
vn 0.4687 0.8834 0.0030
vn 0.6528 0.7575 -0.0056
vn 0.5853 0.8108 -0.0056
vn 0.5413 0.8401 -0.0358
vn 0.5661 0.8243 -0.0045
vn 0.5400 0.8417 0.0041
vn 0.4367 0.6344 0.6378
vn -0.6453 0.4250 0.6347
vn -0.8381 0.4886 0.2425
vn -0.8376 0.5462 -0.0107
vn -0.8377 0.5460 0.0118
vn -0.8676 0.4958 -0.0378
vn -0.8336 0.4860 -0.2624
vn -0.8659 0.4999 0.0146
vn -0.8567 0.5156 -0.0147
vn -0.6453 0.4250 -0.6347
vn -0.8260 0.5635 0.0115
vn -0.7944 0.6074 0.0040
vn -0.8201 0.5719 0.0199
vn -0.8537 0.5206 -0.0109
vn -0.8384 0.5450 -0.0007
vn -0.8330 0.5533 -0.0068
vn -0.8581 0.5133 0.0115
vn -0.8146 0.5799 -0.0143
vn -0.7913 0.6114 0.0057
vn -0.8426 0.5384 -0.0117
vn -0.8200 0.5724 0.0072
vn -0.5380 0.8106 0.2311
vn -0.5485 0.8360 0.0137
vn -0.5892 0.8080 -0.0040
vn -0.5717 0.8205 -0.0038
vn -0.6522 0.7580 0.0067
vn -0.6415 0.7671 0.0072
vn -0.5353 0.8069 -0.2498
vn -0.4305 0.6257 -0.6506
vn -0.7293 0.6839 0.0174
vn -0.6362 0.7715 0.0055
vn -0.7225 0.6913 0.0069
vn -0.4544 0.8907 -0.0096
vn -0.5064 0.8622 -0.0129
vn -0.4687 0.8834 0.0030
vn -0.5853 0.8108 -0.0056
vn -0.6528 0.7575 -0.0056
vn -0.5413 0.8401 -0.0358
vn -0.5661 0.8243 -0.0045
vn -0.5400 0.8417 0.0041
vn -0.4305 0.6257 0.6506
usemtl WoodEnds
s 1
f 53/1/1 54/2/1 288/3/2 287/4/3
f 55/5/1 56/6/1 290/7/4 289/8/5
f 57/9/1 58/10/1 292/11/6 291/12/7
f 59/13/1 60/14/1 294/15/8 293/16/9
f 54/2/1 61/17/10 295/18/11 288/3/2
f 56/6/1 62/19/1 296/20/12 290/7/4
f 62/19/1 53/1/1 287/4/3 296/20/12
f 58/10/1 63/21/1 297/22/13 292/11/6
f 63/21/1 55/5/1 289/8/5 297/22/13
f 60/14/1 64/23/1 298/24/14 294/15/8
f 64/23/1 57/9/1 291/12/7 298/24/14
f 65/25/15 59/13/1 293/16/9 299/26/16
f 93/27/17 92/28/17 300/29/18 301/30/19
f 95/31/17 94/32/17 302/33/20 303/34/21
f 97/35/17 96/36/17 304/37/22 305/38/23
f 99/39/17 98/40/17 306/41/24 307/42/25
f 100/43/26 93/27/17 301/30/19 308/44/27
f 101/45/17 95/31/17 303/34/21 309/46/28
f 92/28/17 101/45/17 309/46/28 300/29/18
f 102/47/17 97/35/17 305/38/23 310/48/29
f 94/32/17 102/47/17 310/48/29 302/33/20
f 103/49/17 99/39/17 307/42/25 311/50/30
f 96/36/17 103/49/17 311/50/30 304/37/22
f 98/40/17 104/51/31 312/52/32 306/41/24
f 100/43/26 308/44/27 358/53/33 437/54/34
f 358/53/33 357/55/35 435/56/36 437/54/34
f 357/55/35 359/57/37 433/58/38 435/56/36
f 312/59/32 104/51/31 438/60/39 418/61/40
f 418/61/40 438/60/39 436/62/41 417/63/42
f 419/64/43 417/65/42 436/62/41 434/66/44
f 299/67/16 415/68/45 442/69/46 65/25/15
f 414/70/47 444/71/48 442/69/46 415/68/45
f 414/70/47 423/72/49 440/73/50 444/71/48
f 61/17/10 441/74/51 355/75/52 295/18/11
f 354/76/53 355/75/52 441/74/51 443/77/54
f 354/76/53 443/77/54 439/78/55 363/79/56
f 434/66/44 447/80/57 432/81/58 419/64/43
f 372/82/59 445/83/60 433/58/38 359/57/37
f 423/72/49 426/84/61 448/85/62 440/73/50
f 363/79/56 439/78/55 446/86/63 366/87/64
f 356/88/65 366/87/64 446/86/63 445/83/60 372/82/59 370/89/66 371/90/67 360/91/68 369/92/69 361/93/70 368/94/71 362/95/72 367/96/73 353/97/74 364/98/75 365/99/76
f 416/100/77 425/101/78 424/102/79 413/103/80 427/104/81 422/105/82 428/106/83 421/107/84 429/108/85 420/109/86 431/110/87 430/111/88 432/81/58 447/80/57 448/85/62 426/84/61
usemtl Wood
f 169/112/89 157/113/90 14/114/91 26/115/92
f 168/116/93 158/117/94 15/118/95 27/119/96
f 166/120/97 159/121/98 16/122/99 29/123/100
f 164/124/101 160/125/102 17/126/103 31/127/104
f 35/128/105 26/129/92 14/130/91 18/131/106
f 36/132/107 27/133/96 15/134/95 19/135/108
f 38/136/109 29/137/100 16/138/99 20/139/110
f 40/140/111 31/141/104 17/142/103 21/143/112
f 295/18/11 35/128/105 18/131/106 288/3/2
f 296/20/12 36/132/107 19/135/108 290/7/4
f 297/22/13 38/136/109 20/139/110 292/11/6
f 298/24/14 40/140/111 21/143/112 294/15/8
f 294/15/8 21/143/112 43/144/113 293/16/9
f 293/16/9 43/144/113 42/145/114 299/26/16
f 292/11/6 20/139/110 41/146/115 291/12/7
f 291/12/7 41/146/115 40/140/111 298/24/14
f 290/7/4 19/135/108 39/147/116 289/8/5
f 289/8/5 39/147/116 38/136/109 297/22/13
f 288/3/2 18/131/106 37/148/117 287/4/3
f 287/4/3 37/148/117 36/132/107 296/20/12
f 21/143/112 17/142/103 34/149/118 43/144/113
f 43/144/113 34/149/118 33/150/119 42/145/114
f 20/139/110 16/138/99 32/151/120 41/146/115
f 41/146/115 32/151/120 31/141/104 40/140/111
f 19/135/108 15/134/95 30/152/121 39/147/116
f 39/147/116 30/152/121 29/137/100 38/136/109
f 18/131/106 14/130/91 28/153/122 37/148/117
f 37/148/117 28/153/122 27/133/96 36/132/107
f 160/125/102 161/154/123 34/155/118 17/126/103
f 161/154/123 162/156/124 33/157/119 34/155/118
f 159/121/98 163/158/125 32/159/120 16/122/99
f 163/158/125 164/124/101 31/127/104 32/159/120
f 158/117/94 165/160/126 30/161/121 15/118/95
f 165/160/126 166/120/97 29/123/100 30/161/121
f 157/113/90 167/162/127 28/163/122 14/114/91
f 167/162/127 168/116/93 27/119/96 28/163/122
f 183/164/128 45/165/129 44/166/130 181/167/131
f 181/167/131 44/166/130 25/168/132 179/169/133
f 179/169/133 25/168/132 47/170/134 177/171/135
f 177/171/135 47/170/134 46/172/136 175/173/137
f 175/173/137 46/172/136 24/174/138 173/175/139
f 173/175/139 24/174/138 49/176/140 171/177/141
f 171/177/141 49/176/140 48/178/142 195/179/143
f 195/179/143 48/178/142 23/180/144 193/181/145
f 193/181/145 23/180/144 51/182/146 191/183/147
f 191/183/147 51/182/146 50/184/148 189/185/149
f 189/185/149 50/184/148 22/186/150 187/187/151
f 187/187/151 22/186/150 52/188/152 185/189/153
f 121/190/154 74/191/155 66/192/156 153/193/157
f 117/194/158 75/195/159 67/196/160 149/197/161
f 113/198/162 77/199/163 68/200/164 141/201/165
f 109/202/166 79/203/167 69/204/168 133/205/169
f 83/206/170 70/207/171 66/208/156 74/209/155
f 84/210/172 71/211/173 67/212/160 75/213/159
f 86/214/174 72/215/175 68/216/164 77/217/163
f 88/218/176 73/219/177 69/220/168 79/221/167
f 308/44/27 301/30/19 70/207/171 83/206/170
f 309/46/28 303/34/21 71/211/173 84/210/172
f 310/48/29 305/38/23 72/215/175 86/214/174
f 311/50/30 307/42/25 73/219/177 88/218/176
f 307/42/25 306/41/24 91/222/178 73/219/177
f 306/41/24 312/52/32 90/223/179 91/222/178
f 305/38/23 304/37/22 89/224/180 72/215/175
f 304/37/22 311/50/30 88/218/176 89/224/180
f 303/34/21 302/33/20 87/225/181 71/211/173
f 302/33/20 310/48/29 86/214/174 87/225/181
f 301/30/19 300/29/18 85/226/182 70/207/171
f 300/29/18 309/46/28 84/210/172 85/226/182
f 73/219/177 91/222/178 82/227/183 69/220/168
f 91/222/178 90/223/179 81/228/184 82/227/183
f 72/215/175 89/224/180 80/229/185 68/216/164
f 89/224/180 88/218/176 79/221/167 80/229/185
f 71/211/173 87/225/181 78/230/186 67/212/160
f 87/225/181 86/214/174 77/217/163 78/230/186
f 70/207/171 85/226/182 76/231/187 66/208/156
f 85/226/182 84/210/172 75/213/159 76/231/187
f 133/205/169 69/204/168 82/232/183 125/233/188
f 125/233/188 82/232/183 81/234/184 105/235/189
f 141/201/165 68/200/164 80/236/185 129/237/190
f 129/237/190 80/236/185 79/203/167 109/202/166
f 149/197/161 67/196/160 78/238/186 137/239/191
f 137/239/191 78/238/186 77/199/163 113/198/162
f 153/193/157 66/192/156 76/240/187 145/241/192
f 145/241/192 76/240/187 75/195/159 117/194/158
f 219/242/193 148/243/194 120/244/195 212/245/196
f 232/246/197 147/247/198 119/248/199 225/249/200
f 245/250/201 146/251/202 118/252/203 238/253/204
f 284/254/205 145/241/192 117/194/158 277/255/206
f 221/256/207 156/257/208 148/243/194 219/242/193
f 234/258/209 155/259/210 147/247/198 232/246/197
f 247/260/211 154/261/212 146/251/202 245/250/201
f 286/262/213 153/193/157 145/241/192 284/254/205
f 217/263/214 140/264/215 116/265/216 211/266/217
f 230/267/218 139/268/219 115/269/220 224/270/221
f 243/271/222 138/272/223 114/273/224 237/274/225
f 282/275/226 137/239/191 113/198/162 276/276/227
f 220/277/228 152/278/229 140/264/215 217/263/214
f 233/279/230 151/280/231 139/268/219 230/267/218
f 246/281/232 150/282/233 138/272/223 243/271/222
f 285/283/234 149/197/161 137/239/191 282/275/226
f 215/284/235 132/285/236 112/286/237 210/287/238
f 228/288/239 131/289/240 111/290/241 223/291/242
f 241/292/243 130/293/244 110/294/245 236/295/246
f 280/296/247 129/237/190 109/202/166 275/297/248
f 218/298/249 144/299/250 132/285/236 215/284/235
f 231/300/251 143/301/252 131/289/240 228/288/239
f 244/302/253 142/303/254 130/293/244 241/292/243
f 283/304/255 141/201/165 129/237/190 280/296/247
f 214/305/256 128/306/257 108/307/258 209/308/259
f 227/309/260 127/310/261 107/311/262 222/312/263
f 240/313/264 126/314/265 106/315/266 235/316/267
f 279/317/268 125/233/188 105/235/189 274/318/269
f 216/319/270 136/320/271 128/306/257 214/305/256
f 229/321/272 135/322/273 127/310/261 227/309/260
f 242/323/274 134/324/275 126/314/265 240/313/264
f 281/325/276 133/205/169 125/233/188 279/317/268
f 210/287/238 112/286/237 136/320/271 216/319/270
f 223/291/242 111/290/241 135/322/273 229/321/272
f 236/295/246 110/294/245 134/324/275 242/323/274
f 275/297/248 109/202/166 133/205/169 281/325/276
f 211/266/217 116/265/216 144/299/250 218/298/249
f 224/270/221 115/269/220 143/301/252 231/300/251
f 237/274/225 114/273/224 142/303/254 244/302/253
f 276/276/227 113/198/162 141/201/165 283/304/255
f 212/245/196 120/244/195 152/278/229 220/277/228
f 225/249/200 119/248/199 151/280/231 233/279/230
f 238/253/204 118/252/203 150/282/233 246/281/232
f 277/255/206 117/194/158 149/197/161 285/283/234
f 213/326/277 124/327/278 156/257/208 221/256/207
f 226/328/279 123/329/280 155/259/210 234/258/209
f 239/330/281 122/331/282 154/261/212 247/260/211
f 278/332/283 121/190/154 153/193/157 286/262/213
f 206/333/284 207/334/285 168/116/93 167/162/127
f 196/335/286 206/333/284 167/162/127 157/113/90
f 204/336/287 205/337/288 166/120/97 165/160/126
f 197/338/289 204/336/287 165/160/126 158/117/94
f 202/339/290 203/340/291 164/124/101 163/158/125
f 198/341/292 202/339/290 163/158/125 159/121/98
f 200/342/293 201/343/294 162/156/124 161/154/123
f 199/344/295 200/342/293 161/154/123 160/125/102
f 203/340/291 199/344/295 160/125/102 164/124/101
f 205/337/288 198/341/292 159/121/98 166/120/97
f 207/334/285 197/338/289 158/117/94 168/116/93
f 208/345/296 196/335/286 157/113/90 169/112/89
f 1/346/297 186/347/298 184/348/299 13/349/300
f 186/347/298 187/187/151 185/189/153 184/348/299
f 11/350/301 188/351/302 186/347/298 1/346/297
f 188/351/302 189/185/149 187/187/151 186/347/298
f 12/352/303 190/353/304 188/351/302 11/350/301
f 190/353/304 191/183/147 189/185/149 188/351/302
f 2/354/305 192/355/306 190/353/304 12/352/303
f 192/355/306 193/181/145 191/183/147 190/353/304
f 9/356/307 194/357/308 192/355/306 2/354/305
f 194/357/308 195/179/143 193/181/145 192/355/306
f 10/358/309 170/359/310 194/357/308 9/356/307
f 170/359/310 171/177/141 195/179/143 194/357/308
f 3/360/311 172/361/312 170/359/310 10/358/309
f 172/361/312 173/175/139 171/177/141 170/359/310
f 7/362/313 174/363/314 172/361/312 3/360/311
f 174/363/314 175/173/137 173/175/139 172/361/312
f 8/364/315 176/365/316 174/363/314 7/362/313
f 176/365/316 177/171/135 175/173/137 174/363/314
f 4/366/317 178/367/318 176/365/316 8/364/315
f 178/367/318 179/169/133 177/171/135 176/365/316
f 5/368/319 180/369/320 178/367/318 4/366/317
f 180/369/320 181/167/131 179/169/133 178/367/318
f 6/370/321 182/371/322 180/369/320 5/368/319
f 182/371/322 183/164/128 181/167/131 180/369/320
f 52/188/152 22/186/150 196/335/286 208/345/296
f 51/182/146 23/180/144 197/338/289 207/334/285
f 49/176/140 24/174/138 198/341/292 205/337/288
f 47/170/134 25/168/132 199/344/295 203/340/291
f 25/168/132 44/166/130 200/342/293 199/344/295
f 44/166/130 45/165/129 201/343/294 200/342/293
f 24/174/138 46/172/136 202/339/290 198/341/292
f 46/172/136 47/170/134 203/340/291 202/339/290
f 23/180/144 48/178/142 204/336/287 197/338/289
f 48/178/142 49/176/140 205/337/288 204/336/287
f 22/186/150 50/184/148 206/333/284 196/335/286
f 50/184/148 51/182/146 207/334/285 206/333/284
f 13/349/300 213/326/277 221/256/207 1/346/297
f 12/352/303 212/245/196 220/277/228 2/354/305
f 10/358/309 211/266/217 218/298/249 3/360/311
f 8/364/315 210/287/238 216/319/270 4/366/317
f 4/366/317 216/319/270 214/305/256 5/368/319
f 5/368/319 214/305/256 209/308/259 6/370/321
f 3/360/311 218/298/249 215/284/235 7/362/313
f 7/362/313 215/284/235 210/287/238 8/364/315
f 2/354/305 220/277/228 217/263/214 9/356/307
f 9/356/307 217/263/214 211/266/217 10/358/309
f 1/346/297 221/256/207 219/242/193 11/350/301
f 11/350/301 219/242/193 212/245/196 12/352/303
f 124/327/278 226/328/279 234/258/209 156/257/208
f 120/244/195 225/249/200 233/279/230 152/278/229
f 116/265/216 224/270/221 231/300/251 144/299/250
f 112/286/237 223/291/242 229/321/272 136/320/271
f 136/320/271 229/321/272 227/309/260 128/306/257
f 128/306/257 227/309/260 222/312/263 108/307/258
f 144/299/250 231/300/251 228/288/239 132/285/236
f 132/285/236 228/288/239 223/291/242 112/286/237
f 152/278/229 233/279/230 230/267/218 140/264/215
f 140/264/215 230/267/218 224/270/221 116/265/216
f 156/257/208 234/258/209 232/246/197 148/243/194
f 148/243/194 232/246/197 225/249/200 120/244/195
f 123/329/280 239/330/281 247/260/211 155/259/210
f 119/248/199 238/253/204 246/281/232 151/280/231
f 115/269/220 237/274/225 244/302/253 143/301/252
f 111/290/241 236/295/246 242/323/274 135/322/273
f 135/322/273 242/323/274 240/313/264 127/310/261
f 127/310/261 240/313/264 235/316/267 107/311/262
f 143/301/252 244/302/253 241/292/243 131/289/240
f 131/289/240 241/292/243 236/295/246 111/290/241
f 151/280/231 246/281/232 243/271/222 139/268/219
f 139/268/219 243/271/222 237/274/225 115/269/220
f 155/259/210 247/260/211 245/250/201 147/247/198
f 147/247/198 245/250/201 238/253/204 119/248/199
f 265/372/323 252/373/324 260/374/325 273/375/326
f 264/376/327 251/377/328 259/378/329 272/379/330
f 263/380/331 250/381/332 257/382/333 270/383/334
f 262/384/335 249/385/336 255/386/276 268/387/337
f 268/387/337 255/386/276 253/388/268 266/389/338
f 266/389/338 253/388/268 248/390/339 261/391/340
f 270/383/334 257/382/333 254/392/341 267/393/342
f 267/393/342 254/392/341 249/385/336 262/384/335
f 272/379/330 259/378/329 256/394/343 269/395/344
f 269/395/344 256/394/343 250/381/332 263/380/331
f 273/375/326 260/374/325 258/396/345 271/397/346
f 271/397/346 258/396/345 251/377/328 264/376/327
f 146/251/202 271/397/346 264/376/327 118/252/203
f 154/261/212 273/375/326 271/397/346 146/251/202
f 138/272/223 269/395/344 263/380/331 114/273/224
f 150/282/233 272/379/330 269/395/344 138/272/223
f 130/293/244 267/393/342 262/384/335 110/294/245
f 142/303/254 270/383/334 267/393/342 130/293/244
f 126/314/265 266/389/338 261/391/340 106/315/266
f 134/324/275 268/387/337 266/389/338 126/314/265
f 110/294/245 262/384/335 268/387/337 134/324/275
f 114/273/224 263/380/331 270/383/334 142/303/254
f 118/252/203 264/376/327 272/379/330 150/282/233
f 122/331/282 265/372/323 273/375/326 154/261/212
f 252/373/324 278/332/283 286/262/213 260/374/325
f 251/377/328 277/255/206 285/283/234 259/378/329
f 250/381/332 276/276/227 283/304/255 257/382/333
f 249/385/336 275/297/248 281/325/276 255/386/276
f 255/386/276 281/325/276 279/317/268 253/388/268
f 253/388/268 279/317/268 274/318/269 248/390/339
f 257/382/333 283/304/255 280/296/247 254/392/341
f 254/392/341 280/296/247 275/297/248 249/385/336
f 259/378/329 285/283/234 282/275/226 256/394/343
f 256/394/343 282/275/226 276/276/227 250/381/332
f 260/374/325 286/262/213 284/254/205 258/396/345
f 258/396/345 284/254/205 277/255/206 251/377/328
f 83/206/170 74/209/155 317/398/347 318/399/348
f 252/373/324 265/372/323 331/400/349 330/401/350
f 169/112/89 26/115/92 314/402/351 323/403/352
f 74/191/155 121/190/154 319/404/353 317/405/347
f 208/345/296 169/112/89 323/403/352 326/406/354
f 35/128/105 295/18/11 315/407/355
f 265/372/323 122/331/282 320/408/356 331/400/349
f 122/331/282 239/330/281 329/409/357 320/408/356
f 239/330/281 123/329/280 321/410/358 329/409/357
f 121/190/154 278/332/283 332/411/359 319/404/353
f 26/129/92 35/128/105 315/407/355 314/412/351
f 124/327/278 213/326/277 327/413/360 322/414/361
f 226/328/279 124/327/278 322/414/361 328/415/362
f 278/332/283 252/373/324 330/401/350 332/411/359
f 52/188/152 208/345/296 326/406/354 316/416/363
f 185/189/153 52/188/152 316/416/363 325/417/364
f 13/349/300 184/348/299 324/418/365 313/419/366
f 213/326/277 13/349/300 313/419/366 327/413/360
f 308/44/27 83/206/170 318/399/348
f 184/348/299 185/189/153 325/417/364 324/418/365
f 123/329/280 226/328/279 328/415/362 321/410/358
f 317/405/347 319/404/353 339/420/367 337/421/368
f 322/414/361 327/413/360 347/422/369 342/423/370
f 331/400/349 320/408/356 340/424/371 351/425/372
f 314/412/351 315/407/355 335/426/373 334/427/374
f 321/410/358 328/415/362 348/428/375 341/429/376
f 329/409/357 321/410/358 341/429/376 349/430/377
f 316/416/363 326/406/354 346/431/378 336/432/379
f 320/408/356 329/409/357 349/430/377 340/424/371
f 328/415/362 322/414/361 342/423/370 348/428/375
f 325/417/364 316/416/363 336/432/379 345/433/380
f 332/411/359 330/401/350 350/434/381 352/435/382
f 323/403/352 314/402/351 334/436/374 343/437/383
f 327/413/360 313/419/366 333/438/384 347/422/369
f 330/401/350 331/400/349 351/425/372 350/434/381
f 313/419/366 324/418/365 344/439/385 333/438/384
f 319/404/353 332/411/359 352/435/382 339/420/367
f 324/418/365 325/417/364 345/433/380 344/439/385
f 318/399/348 317/398/347 337/440/368 338/441/386
f 326/406/354 323/403/352 343/437/383 346/431/378
f 318/399/348 338/441/386 308/44/27
f 315/407/355 295/18/11 335/426/373
f 347/422/369 333/438/384 353/97/74 367/96/73
f 339/420/367 352/435/382 372/82/59 359/57/37
f 336/432/379 346/431/378 366/87/64 356/88/65
f 344/439/385 345/433/380 365/99/76 364/98/75
f 338/441/386 337/440/368 357/55/35 358/53/33
f 346/431/378 343/437/383 363/79/56 366/87/64
f 337/421/368 339/420/367 359/57/37 357/442/35
f 342/423/370 347/422/369 367/96/73 362/95/72
f 351/425/372 340/424/371 360/91/68 371/90/67
f 341/429/376 348/428/375 368/94/71 361/93/70
f 349/430/377 341/429/376 361/93/70 369/92/69
f 340/424/371 349/430/377 369/92/69 360/91/68
f 348/428/375 342/423/370 362/95/72 368/94/71
f 345/433/380 336/432/379 356/88/65 365/99/76
f 352/435/382 350/434/381 370/89/66 372/82/59
f 343/437/383 334/436/374 354/443/53 363/79/56
f 350/434/381 351/425/372 371/90/67 370/89/66
f 333/438/384 344/439/385 364/98/75 353/97/74
f 334/427/374 335/426/373 355/75/52 354/76/53
f 335/426/373 295/18/11 355/75/52
f 338/441/386 358/53/33 308/44/27
f 90/444/179 378/445/387 377/446/388 81/447/184
f 248/448/339 390/449/389 391/450/390 261/451/340
f 162/452/124 383/453/391 374/454/392 33/455/119
f 81/456/184 377/457/388 379/458/393 105/459/189
f 201/460/294 386/461/394 383/453/391 162/452/124
f 42/462/114 375/463/395 299/67/16
f 261/451/340 391/450/390 380/464/396 106/465/266
f 106/465/266 380/464/396 389/466/397 235/467/267
f 235/467/267 389/466/397 381/468/398 107/469/262
f 105/459/189 379/458/393 392/470/399 274/471/269
f 33/472/119 374/473/392 375/463/395 42/462/114
f 108/474/258 382/475/400 387/476/401 209/477/259
f 222/478/263 388/479/402 382/475/400 108/474/258
f 274/471/269 392/470/399 390/449/389 248/448/339
f 45/480/129 376/481/403 386/461/394 201/460/294
f 183/482/128 385/483/404 376/481/403 45/480/129
f 6/484/321 373/485/405 384/486/406 182/487/322
f 209/477/259 387/476/401 373/485/405 6/484/321
f 312/59/32 378/445/387 90/444/179
f 182/487/322 384/486/406 385/483/404 183/482/128
f 107/469/262 381/468/398 388/479/402 222/478/263
f 377/457/388 397/488/407 399/489/408 379/458/393
f 382/475/400 402/490/409 407/491/410 387/476/401
f 391/450/390 411/492/411 400/493/412 380/464/396
f 374/473/392 394/494/413 395/495/414 375/463/395
f 381/468/398 401/496/415 408/497/416 388/479/402
f 389/466/397 409/498/417 401/496/415 381/468/398
f 376/481/403 396/499/418 406/500/419 386/461/394
f 380/464/396 400/493/412 409/498/417 389/466/397
f 388/479/402 408/497/416 402/490/409 382/475/400
f 385/483/404 405/501/420 396/499/418 376/481/403
f 392/470/399 412/502/421 410/503/422 390/449/389
f 383/453/391 403/504/423 394/505/413 374/454/392
f 387/476/401 407/491/410 393/506/424 373/485/405
f 390/449/389 410/503/422 411/492/411 391/450/390
f 373/485/405 393/506/424 404/507/425 384/486/406
f 379/458/393 399/489/408 412/502/421 392/470/399
f 384/486/406 404/507/425 405/501/420 385/483/404
f 378/445/387 398/508/426 397/509/407 377/446/388
f 386/461/394 406/500/419 403/504/423 383/453/391
f 378/445/387 312/59/32 398/508/426
f 375/463/395 395/495/414 299/67/16
f 407/491/410 427/104/81 413/103/80 393/506/424
f 399/489/408 419/64/43 432/81/58 412/502/421
f 396/499/418 416/100/77 426/84/61 406/500/419
f 404/507/425 424/102/79 425/101/78 405/501/420
f 398/508/426 418/61/40 417/63/42 397/509/407
f 406/500/419 426/84/61 423/72/49 403/504/423
f 397/488/407 417/65/42 419/64/43 399/489/408
f 402/490/409 422/105/82 427/104/81 407/491/410
f 411/492/411 431/110/87 420/109/86 400/493/412
f 401/496/415 421/107/84 428/106/83 408/497/416
f 409/498/417 429/108/85 421/107/84 401/496/415
f 400/493/412 420/109/86 429/108/85 409/498/417
f 408/497/416 428/106/83 422/105/82 402/490/409
f 405/501/420 425/101/78 416/100/77 396/499/418
f 412/502/421 432/81/58 430/111/88 410/503/422
f 403/504/423 423/72/49 414/510/47 394/505/413
f 410/503/422 430/111/88 431/110/87 411/492/411
f 393/506/424 413/103/80 424/102/79 404/507/425
f 394/494/413 414/70/47 415/68/45 395/495/414
f 395/495/414 415/68/45 299/67/16
f 398/508/426 312/59/32 418/61/40
usemtl WoodCore
f 100/43/26 104/51/31 98/40/17 99/39/17 103/49/17 96/36/17 97/35/17 102/47/17 94/32/17 95/31/17 101/45/17 92/28/17 93/27/17
f 61/17/10 54/2/1 53/1/1 62/19/1 56/6/1 55/5/1 63/21/1 58/10/1 57/9/1 64/23/1 60/14/1 59/13/1 65/25/15
f 104/51/31 100/43/26 437/54/34 438/60/39
f 436/62/41 438/60/39 437/54/34 435/56/36
f 434/66/44 436/62/41 435/56/36 433/58/38
f 65/25/15 442/69/46 441/74/51 61/17/10
f 442/69/46 444/71/48 443/77/54 441/74/51
f 440/73/50 439/78/55 443/77/54 444/71/48
f 448/85/62 446/86/63 439/78/55 440/73/50
f 434/66/44 433/58/38 445/83/60 447/80/57
f 447/80/57 445/83/60 446/86/63 448/85/62
