# Blender MTL File: 'None'
# Material Count: 5

newmtl Default_OBJ
Ns 0.000000
Ka 1.000000 1.000000 1.000000
Kd 0.545725 0.434154 0.278894
Ks 1.000000 1.000000 1.000000
Ke 0.000000 0.000000 0.000000
Ni 1.450000
d 1.000000
illum 2

newmtl Default_OBJ.001
Ns 0.000000
Ka 1.000000 1.000000 1.000000
Kd 0.545725 0.434154 0.278894
Ks 1.000000 1.000000 1.000000
Ke 0.000000 0.000000 0.000000
Ni 1.450000
d 1.000000
illum 2

newmtl Default_OBJ.002
Ns 0.000000
Ka 1.000000 1.000000 1.000000
Kd 0.545725 0.434154 0.278894
Ks 1.000000 1.000000 1.000000
Ke 0.000000 0.000000 0.000000
Ni 1.450000
d 1.000000
illum 2

newmtl Default_OBJ.003
Ns 0.000000
Ka 1.000000 1.000000 1.000000
Kd 0.545725 0.434154 0.278894
Ks 1.000000 1.000000 1.000000
Ke 0.000000 0.000000 0.000000
Ni 1.450000
d 1.000000
illum 2

newmtl Default_OBJ.004
Ns 0.000000
Ka 1.000000 1.000000 1.000000
Kd 0.545725 0.434154 0.278894
Ks 1.000000 1.000000 1.000000
Ke 0.000000 0.000000 0.000000
Ni 1.450000
d 1.000000
illum 2
